Onderwijs- en examenregeling
2019-2020
Bacheloropleiding Human Resource Management
34609

Instemming opleidingscommissie: 25 april 2019
Instemming deelraad: 26 april 2019
Vaststelling decaan: 13 mei 2019

Inhoud
Hoofdstuk 1 Inleiding .......................................................................................................................4
1.1 Leeswijzer ........................................................................................................................................... 4
1.2 Relevante informatiebronnen naast Onderwijs- en examenregeling ................................................ 4
1.3 Informatie over toelatingseisen ......................................................................................................... 5
Hoofdstuk 2 Onderwijs.....................................................................................................................6
Artikel 2.1
Doelstelling opleiding............................................................................................................ 6
Artikel 2.2
Eindkwalificaties opleiding .................................................................................................... 6
Artikel 2.3
Aanbod onderwijsprogramma’s ........................................................................................... 6
Artikel 2.4
Opbouw onderwijsprogramma’s .......................................................................................... 7
Artikel 2.5
Vormgeving onderwijs .......................................................................................................... 7
Artikel 2.6
Evaluatie onderwijs ............................................................................................................... 7
Artikel 2.7
Studentbegeleiding ............................................................................................................... 8
Artikel 2.8
Traject gericht op hoger kennisniveau.................................................................................. 8
Artikel 2.9
Minoren................................................................................................................................. 8
Artikel 2.10 Voorzieningen voor studenten met een functiebeperking................................................... 9
Artikel 2.11 Doorstroom propedeuse naar hoofdfase ............................................................................. 9
Hoofdstuk 3 Tentamens en deeltentamens .....................................................................................10
Artikel 3.1
Vorm.................................................................................................................................... 10
Artikel 3.2
Volgorde .............................................................................................................................. 10
Artikel 3.3
Aantal gelegenheden .......................................................................................................... 10
Artikel 3.4
Tentamenrooster ................................................................................................................ 11
Artikel 3.5
Inrichting en verplichte deelname praktische oefeningen ................................................. 11
Artikel 3.6
Mondeling (deel)tentamen ................................................................................................. 11
Artikel 3.7
Normering van de beoordelingen ....................................................................................... 11
Artikel 3.8
Vaststelling en bekendmaking resultaten........................................................................... 12
Artikel 3.9
Toekennen studiepunten .................................................................................................... 12
Artikel 3.10 Inzage .................................................................................................................................. 12
Artikel 3.11 Verlenen vrijstellingen voor (onderdelen van) onderwijseenheid ..................................... 12
Artikel 3.12 Geldigheidsduur .................................................................................................................. 13
Artikel 3.13 Functiebeperking ................................................................................................................ 13
Artikel 3.14 Taalachterstand .................................................................................................................. 13
Hoofdstuk 4 Regels bij het maken van (deel)tentamens ..................................................................14
Artikel 4.1
Aanmelden tentamens en deeltentamens ......................................................................... 14
Artikel 4.2
Afname tentamens en deeltentamens ............................................................................... 14
Artikel 4.3
Eigen/individueel werk ....................................................................................................... 14
Artikel 4.4
Omschrijving plagiaat.......................................................................................................... 14
Artikel 4.5
Plagiaatdetectie .................................................................................................................. 15
Artikel 4.6
Omschrijving (ernstige) fraude ........................................................................................... 15
Artikel 4.7
Procedure bij plagiaat en/of fraude .................................................................................... 16
Hoofdstuk 5 Studieadvies ...............................................................................................................17
Artikel 5.1
Studieadvies propedeuse einde 1e jaar van inschrijving..................................................... 17
Artikel 5.2
Opschorten studieadvies propedeuse ................................................................................ 17
Artikel 5.3
Studieadvies propedeuse einde 2e jaar van inschrijving..................................................... 17
Artikel 5.4
Persoonlijke omstandigheden ............................................................................................ 17
Artikel 5.5
Voorwaarden studieadvies ................................................................................................. 18
Onderwijs- en examenregeling Opleiding Human Resource Management

2

Artikel 5.6
Gevolgen negatief bindend studieadvies............................................................................ 18
Hoofdstuk 6 Examens, propedeusediploma en getuigschrift ............................................................19
Artikel 6.1
Examens .............................................................................................................................. 19
Artikel 6.2
Propedeusediploma en getuigschrift .................................................................................. 19
Artikel 6.3
Graad ................................................................................................................................... 19
Artikel 6.4
Berekening gemiddelde en cum-laude-regeling ................................................................. 19
Artikel 6.5
Verklaring ............................................................................................................................ 20
Hoofdstuk 7 Examencommissie en College van beroep ...................................................................21
Artikel 7.1
Verzoeken aan examencommissie...................................................................................... 21
Artikel 7.2
Beroep bij het College van beroep voor de examens (COBEX) ........................................... 21
Hoofdstuk 8 Geldigheid Onderwijs- en examenregeling ..................................................................22
Artikel 8.1
Reikwijdte............................................................................................................................ 22
Artikel 8.2
Vaststelling .......................................................................................................................... 22
Artikel 8.3
Geldigheid en ingangsdatum .............................................................................................. 22
Artikel 8.4
Overgangsmaatregelen ....................................................................................................... 22
Hoofdstuk 9 Toetsprogramma’s......................................................................................................23
9.1 Propedeuse ....................................................................................................................................... 23
9.2 Hoofdfase (incl. afstudeerrichtingen en minoren) ........................................................................... 25
Hoofdstuk 10 Begrippen...................................................................................................................37

Onderwijs- en examenregeling Opleiding Human Resource Management

3

Hoofdstuk 1

Inleiding

Iedere opleiding is wettelijk verplicht een Onderwijs- en examenregeling te hebben. Deze regeling bevat de regels
over het onderwijs, de tentamens en de examens van de opleiding. De actuele Onderwijs- en examenregeling van
je opleiding vind je bij de studiegids van je opleiding onder Opleidingsgegevens.

1.1

Leeswijzer

Hoofdstuk 2 Onderwijs beschrijft de doelstelling en eindkwalificaties van de opleiding en de vormgeving van het
onderwijs. Het geeft verder een overzicht van de programma’s die de opleiding aanbiedt, inclusief eventuele afstudeerrichtingen en informatie over studentbegeleiding. Het bevat ook regels over minoren en doorstroom naar de
hoofdfase.
Hoofdstuk 3 Tentamens en deeltentamens beschrijft alle zaken rondom toetsing: vorm, volgorde, aantal gelegenheden, beoordeling, inzage, e.d. In dit hoofdstuk staat verder beschreven wanneer je studiepunten hebt behaald,
de geldigheidsduur en aanpassingen voor studenten met een functiebeperking of taalachterstand.
Hoofdstuk 4 Regels bij het maken van tentamens beschrijft waar studenten zich aan dienen te houden bij het maken van (deel)tentamens, wat we verstaan onder fraude en plagiaat en wat de procedure is als fraude of plagiaat
aan de orde is.
Hoofdstuk 5 Studieadvies bevat de regels over het bindend studieadvies en wat de gevolgen zijn als je de norm
voor de propedeuse niet hebt behaald.
Hoofdstuk 6 Examens, propedeusediploma en getuigschrift bevat de regels over diplomering voor de propedeuse
en hoofdfase en wanneer je voor cum laude in aanmerking komt.
Hoofdstuk 7 Examencommissie en College van beroep beschrijft waarvoor je terecht kunt bij de Examencommissie en wanneer je in beroep kunt gaan bij het College van beroep voor de examens (COBEX).
Hoofdstuk 8 Geldigheid Onderwijs- en examenregeling beschrijft op wie en wat de Onderwijs- en examenregeling
van toepassing is, de geldigheid en de vaststelling.
Hoofdstuk 9 Toetsprogramma’s geeft het overzicht van alle onderwijseenheden van de onderwijsprogramma’s die
de opleiding aanbiedt, met vermelding van het aantal studiepunten, de toetsvormen en de afnamemomenten.
In hoofdstuk 10 Begrippen worden de belangrijke begrippen uit de tekst toegelicht.
Waar in dit document ‘zij’ staat, wordt eveneens ‘hij’ bedoeld.

1.2
•
•
•
•
•
•
•

Relevante informatiebronnen naast Onderwijs- en examenregeling
Studentenstatuut: bevat alle rechten en plichten van de (toekomstige) studenten. De Onderwijs- en examenregeling is onderdeel van het Studentenstatuut.
Studiegids: de digitale informatiebron met alle relevante informatie over de opleiding en de onderwijseenheden.
Tentamenafname protocollen: de gedetailleerde regels over de gang van zaken bij de afname van (deel)tentamens.
Gedragscode Studentendecanen: richtlijnen voor het professioneel handelen van de studentendecaan.
Studeren met een functiebeperking: informatie over de mogelijkheden voor aanpassingen voor studenten met
een functiebeperking.
Topsportregeling: bevat mogelijkheden voor aanpassingen voor studenten die topsporter zijn.
Ondernemersregeling: bevat mogelijkheden voor aanpassingen voor studenten die ondernemer zijn.

Onderwijs- en examenregeling Opleiding Human Resource Management

4

•
•
•
•

1.3

HvA Toetsbeleid: HvA brede afspraken over kwaliteit en kwaliteitsbewaking van de toetsing.
Reglement Examencommissie: bevat de regels voor samenstelling, taken en werkwijze van de examencommissie.
Selectielijst Vereniging Hogescholen: bevat de regels over bewaartermijnen voor onder andere tentamens en
getuigschriften.
Privacybeleid en beleid verwerking persoonsgegevens; bevat de maatregelen van de HvA ten aanzien van de
Algemene Verordening Gegevensbescherming (AVG) en wet Bescherming Persoonsgegevens (Wbp).

Informatie over toelatingseisen

De algemene toelatingseisen tot de bacheloropleiding staan vermeld in het Studentenstatuut. De specifieke toelatingseisen van de opleidingsprogramma’s van de bacheloropleiding staan vermeld in de studiegids.

Onderwijs- en examenregeling Opleiding Human Resource Management

5

Hoofdstuk 2
Artikel 2.1

Onderwijs

Doelstelling opleiding

1. De studenten verwerven tijdens de opleiding kennis, houding en vaardigheden op het terrein van Human
Resource Management. Na het voltooien van de opleiding kunnen de studenten als beginnend professional
aan de slag in het werkgebied van de opleiding; zelfstandig en met een kritische instelling en in een
grootstedelijke, creatieve en innovatieve context.

Artikel 2.2
1.

Eindkwalificaties opleiding

Na afronding van de opleiding beschikken de studenten over de volgende eindkwalificaties:
Strategische context van HR
De HR-bachelor overziet de ontwikkelingen in de omgeving van de organisatie en vertaalt deze naar HR
beleid, rekening houdend met de verschillende stakeholders.
HR data en analyse
De HR-bachelor verzamelt data, analyseert deze data, informeert en adviseert hierover aan de relevante
stakeholders binnen en buiten de organisatie
Arbeidmarkt transities
De HR-bachelor levert een aantoonbare bijdrage aan de afstemming tussen extern beschikbaar arbeidspotentie en de intern benodigde inzet
De ontwikkeling van individuen en teams
De HR-bachelor initieert en ondersteunt de ontwikkeling van individuen en teams gericht op het realiseren van organisatiedoelstellingen
Adviseren
De HR-bachelor adviseert over HR activiteiten die processen binnen de organisatie optimaliseren of de
kwaliteit van arbeid verbeteren
Professioneel handelen
De HR-bachelor heeft zich ontwikkeld tot een professioneel vakman en laat zien dat hij over een professionele houding beschikt
Voor meer informatie over het de eindkwalificaties zie:
Opleidingsprofiel HRM

Artikel 2.3
1.

Aanbod onderwijsprogramma’s

De opleiding biedt de volgende onderwijsprogramma’s aan:
Naam
Propedeuse
Hoofdfase

Human Resource Management
Human Resource Management

Onderwijs- en examenregeling Opleiding Human Resource Management

Aantal
EC
60
180

Vt/dt/du
VT/DT
VT/DT
6

Artikel 2.4

Opbouw onderwijsprogramma’s

1.

De opleiding kan een studiejaar indelen in 4 blokken van 10 weken en een extra vijfde blok van 8 weken in de zomerperiode of in 2 semesters van 20 weken en een extra periode van 8 weken in de zomerperiode.

2.

Alle onderwijseenheden van de onderwijsprogramma’s staan vermeld in hoofdstuk 9. Per onderwijseenheid is het
volgende opgenomen:
a.

de naam van de onderwijseenheid;

b.

het aantal studiepunten;

c.

de toetsvorm van alle (deel)tentamen(s) bij eerste en tweede gelegenheid;

d.

de week of het blok waarin de (deel)tentamen(s) worden aangeboden, zowel de eerste als de tweede gelegenheid.

Artikel 2.5
1.

Vormgeving onderwijs

Uitgangspunt van onze visie is dat studenten vooral leren in een leeromgeving waarin het oplossen van beroepsvraagstukken en de uitwerking daarvan in beroepsproducten een belangrijke plaats inneemt. De kennis en praktische vaardigheden die de student zich eigen maakt in iedere fase van de studie zijn steeds gekoppeld aan dat
vraagstuk. In de propedeuse speelt het vraagstuk zich vooral af in gesimuleerde bedrijven. Vanaf jaar twee werkt
de student aan vraagstukken die zijn aangereikt door opdrachtgevers uit het werkveld. De beroepsproducten en handelingen van de student dragen daarmee daadwerkelijk bij aan de doelstellingen van een organisatie. Hiermee
ervaart de student aan den lijve hoe het is om zich als adviseur op te stellen. Daarbij is een belangrijke vereiste dat
de student zijn of haar onderzoeksvaardigheden inzet om vanuit een onderbouwde probleemstelling via onderzoek
tot een afgewogen en passend advies te komen. Door het stelselmatig betrekken van de beroepspraktijk leert de
voltijdstudent de beroepspraktijk gedurende de opleiding steeds beter kennen. In de hogere jaren verwerft de student steeds meer zijn of haar eigen opdrachten. Op die manier geeft de student meer en meer richting aan de eigen professionele ontwikkeling. In de eerste twee studiejaren is de student in een klas van 24 studenten in gedeeld. In de laatste 2 studiejaren wordt het onderwijs intensiever en leert de student in kleinere leergroepen en
soms ook een-op-een met een docent.
Binnen de deeltijd opleiding werkt de student aan werkelijke vraagstukken uit de eigen organisatie.

2.

De opleiding wordt in het Nederlands gegeven. In het vak “Business and Communication in English” en de minor
“International Teams and Organizations” is de voertaal Engels.

Artikel 2.6

Evaluatie onderwijs

Na afloop van een onderwijsperiode (blok in jaar 1 en 2 of semester in jaar 3 en 4) wordt een breed palet aan informatie verzameld en samengebracht:
•
•
•
•
•
•

ervaringen van docenten gedurende het blok/semester;
de ervaringen van opdrachtgevers bij stages en afstudeeropdrachten;
kwantitatieve studentenevaluaties;
verslag van de opleidingscommissie (OC) over gesprekken met klassenvertegenwoordigers;
verslagen van focusgesprekken met studenten;
cijfers over deelname aan onderwijseenheden;

Onderwijs- en examenregeling Opleiding Human Resource Management

7

•

en de rendementen van toetsen.

Vervolgens wordt al deze informatie meegenomen naar een gemeenschappelijk overleg tussen docenten, opleidingsmanager, vertegenwoordigers van de opleidingscommissie (bij voorkeur studentleden), curriculumcommissie,
het onderwijsbureau, de examencommissie en adviseurs Onderwijs en Kwaliteit. Er wordt besproken welke verbeterpunten er zijn en er wordt bepaald welke acties nodig. Deze acties worden uitgezet en onderwijs logistieke informatie voor OER, SIS en roostering wordt zo mogelijk al vastgelegd.
Bij deeltijd worden per semester student enquêtes uitgezet. In de semesterteams worden deze resultaten besproken in samenhang met eigen ervaringen in het semester. Op basis hiervan rapporteert de semestervoorzitter via
een jaarlijkse semesterrapportage aan het kernteam. Ook de OC is intensief betrokken bij onderwijsevaluatie- en
vernieuwing.

Artikel 2.7

Studentbegeleiding

1.

De opleidingsmanager draagt zorg voor individuele studiebegeleiding van de studenten ten aanzien van de voortgang van de beroepsinhoudelijke en professionele ontwikkeling van de studenten.

2.

De student kan zich wenden tot de studentendecaan voor problemen van persoonlijke aard, al dan niet
rechtstreeks samenhangend met de opleiding. De studentendecaan is gehouden aan de Gedragscode
Studentendecanen.

Artikel 2.8
1.

Traject gericht op hoger kennisniveau

De opleiding biedt geen traject aan gericht op een hoger kennisniveau.

Artikel 2.9

Minoren

1.

De minorruimte heeft een omvang van 30 studiepunten en maakt deel uit van de hoofdfase. De student bij de
voltijd kan starten met een minor als zij de propedeuse en 50 studiepunten uit de hoofdfase heeft behaald 1. Bij
deeltijd kan de student starten nadat de propedeuse en het eerste semester (30EC) uit de hoofdfase behaald zijn.

2.

De studenten kunnen een minor kiezen uit:
a.

het aanbod van de HvA;

b.

het aanbod van een bij Kies Op Maat (KOM) aangesloten hoger onderwijsinstelling vermeld op
www.kiesopmaat.nl;

c.

het aanbod van (doorstroom)minoren van een hogeronderwijsinstelling, die niet op KOM vermeld staan;

d.

het aanbod van minoren aan een hoger onderwijsinstelling in het buitenland.

De minor die een student kiest mag qua inhoud en niveau niet overlappen met overige onderdelen van de
opleiding die de student volgt. De student moet de minorkeuze ter goedkeuring voorleggen aan de
examencommissie van haar opleiding.
Aanbieders van minoren kunnen inhoudelijke toelatingseisen hanteren bij een minor uit hun aanbod.
Indien een minor is erkend als programma gericht op hoger kennisniveau, is ook artikel 2.8 van toepassing.

1

Dit is niet van toepassing op studenten in een driejarig traject voor vwo’ers.

Onderwijs- en examenregeling Opleiding Human Resource Management

8

De door de HvA aangeboden minoren worden uiterlijk 1 maart voorafgaand aan het studiejaar geplaatst op de minoren website.
3.

Vrijstelling voor de minorruimte is mogelijk voor studenten die ten minste 30 studiepunten voor
onderwijseenheden hebben behaald in de hoofdfase van een andere hbo of wo bachelor, die qua inhoud, omvang
en niveau niet overlappen met onderwijseenheden van de huidige opleiding (zie verder artikel 3.11).

Artikel 2.10

Voorzieningen voor studenten met een functiebeperking

1.

Studenten met een functiebeperking vanwege een handicap of chronische ziekte, hebben recht op doeltreffende,
geschikte of noodzakelijke aanpassingen, tenzij deze voor de hogeschool een onevenredige belasting vormen.

2.

De opleidingsmanager biedt een student met een functiebeperking een onderwijsomgeving aan die zo veel als
mogelijk gelijkwaardig is aan die van studenten zonder functiebeperking en die gelijkwaardige kansen op
studiesucces biedt. De opleidingsmanager wint bij een verzoek voor een voorziening advies in bij de
studentendecaan. Zie verder: Studeren met een functiebeperking.
De aanpassingen dienen ertoe belemmeringen weg te nemen of te beperken en de zelfstandigheid en volwaardige
participatie van de student zoveel mogelijk te bevorderen. De aanpassingen kunnen betrekking hebben op:

3.

a.

de toegankelijkheid van gebouwen;

b.

het onderwijsprogramma, inclusief de stages;

c.

de onderwijsroosters;

d.

de werkvormen, inclusief de begeleiding;

e.

de leermiddelen, en;

f.

de toetsing (zie ook artikel 3.13).

Artikel 2.11
1.

Doorstroom propedeuse naar hoofdfase

Studenten zijn toelaatbaar tot de hoofdfase als het propedeutisch examen is behaald (zie hoofdstuk 6).
In aanvulling hierop verleent de examencommissie automatisch toestemming aan studenten die voor de
propedeuse zijn ingeschreven, om onderwijs te volgen en tentamens af te leggen uit de hoofdfase indien:
a. het propedeutisch examen nog niet is behaald maar wel ten minste 50 studiepunten zijn behaald (zie
hoofdstuk 5) of;
b. het studieadvies is opgeschort vanwege persoonlijke omstandigheden (zie hoofdstuk 5).
Daarnaast kan de examencommissie toestemming verlenen aan propedeusestudenten in een versneld programma
voor het volgen van onderdelen in de hoofdfase.

Onderwijs- en examenregeling Opleiding Human Resource Management

9

Hoofdstuk 3
Artikel 3.1

Tentamens en deeltentamens

Vorm

1.

Een onderwijseenheid wordt afgesloten met een tentamen. Een tentamen kan bestaan uit meerdere deeltentamens. In hoofdstuk 9 zijn de toetsprogramma’s opgenomen: bij iedere onderwijseenheid staat vermeld met welke
toetsvorm de tentamens of deeltentamens worden afgenomen bij de eerste en tweede gelegenheid.

2.

Het vastgestelde toetsprogramma kan alleen om dringende redenen worden gewijzigd en alleen na advies van de
opleidingscommissie en met instemming van de deelraad.

3.

De opleidingsmanager zorgt ervoor dat, op basis van de vastgestelde toetsprogramma’s, voor elk tentamen of
deeltentamen afzonderlijk in de studiegids is vermeld wat de leerdoelen zijn en wat het studiemateriaal is, zodat
de studenten zich zo goed mogelijk kunnen voorbereiden. In de studiegids wordt tevens aangegeven of er bij tentamens sprake is van compensatie en/of weging.

4.

Een tentamen of deeltentamen dat door een groep van studenten gezamenlijk wordt uitgevoerd, wordt zodanig
ingericht dat dit voor elke betrokken student tot een individuele beoordeling leidt - op basis van de leerdoelen voor een individueel herkenbare prestatie. In de formulering van de opdracht wordt aangegeven hoe hieraan concreet invulling is gegeven.

Artikel 3.2

Volgorde

1.

In hoofdstuk 9 Toetsprogramma’s staat bij elke onderwijseenheid vermeld in welk blok of welke week het tentamen of de deeltentamens wordt/worden afgenomen.

2.

Bij de toetsprogramma’s is, indien van toepassing, tevens vermeld of er:
a.
b.

een aantal studiepunten vereist is als voorwaarde om deel te mogen nemen aan (deel)tentamens van
bepaalde onderwijseenheden;
onderwijseenheden moeten zijn behaald als voorwaarde om te mogen deelnemen aan bepaalde
onderwijseenheden.

Artikel 3.3

Aantal gelegenheden

1.

Elk studiejaar krijgen studenten tweemaal de gelegenheid om een onderwijseenheid van de propedeuse of hoofdfase af te sluiten. Bij stages en langdurige opdrachten waarbij het niet mogelijk is om in hetzelfde jaar te herkansen, kan de opleidingsmanager bepalen dat in hetzelfde studiejaar slechts één gelegenheid wordt geboden.

2.

Op grond van persoonlijke omstandigheden (zie artikel 5.4) kan de examencommissie besluiten in een voor de student gunstige zin af te wijken van de beperking van het aantal gelegenheden. De examencommissie wint advies in
bij de studentendecaan en - zo nodig - bij de betrokken docent en/of studentbegeleider alvorens te beslissen.

3.

Wordt een onderwijseenheid niet meer aangeboden, dan biedt de opleiding in het daaropvolgende studiejaar nog
tweemaal de gelegenheid tot het afleggen van een tentamen of deeltentamen van die onderwijseenheid.

4.

Wanneer een student een onderwijseenheid niet heeft behaald in het studiejaar waarin zij het onderwijs in die
onderwijseenheid heeft gevolgd en in het volgende studiejaar alsnog een tentamen of deeltentamen in die onderwijseenheid wil afleggen, gelden ten aanzien van de gestelde eisen de eisen van het lopende studiejaar.

Onderwijs- en examenregeling Opleiding Human Resource Management

10

Artikel 3.4

Tentamenrooster

1.

De opleidingsmanager bepaalt jaarlijks wanneer de tentamenmomenten plaatsvinden (zie hoofdstuk 9). Bij het
bepalen van de data van de tentamenmomenten in een studiejaar, wordt rekening gehouden met de studeerbaarheid van het totale programma voor studenten. Voor herkansingen kan het vijfde blok worden benut.

2.

Het tentamenrooster is uiterlijk twee weken voorafgaand aan de start van het blok vastgesteld en bekendgemaakt
aan de studenten.

3.

Een student die voldoet aan de criteria van de Topsportregeling of de Ondernemersregeling van de HvA kan in aanmerking komen voor een aangepast tentamenrooster.

Artikel 3.5
1.

2.
3.

Inrichting en verplichte deelname praktische oefeningen

Bij de projecten en trainingen in de propedeuse en bij de trainingen in jaar twee is sprake van praktische oefeningen. Bij deze onderwijseenheden kan het gewenste leereffect alleen bereikt worden door deelname aan de ingeroosterde bijeenkomsten. In deze lessen oefen je vaardigheden, dan wel werk je met je teamgenoten aan een beroepsproduct en ontvang je feedback van zowel je medestudenten als docenten. Daarom geldt voor deze lessen
een deelnameplicht.
In de studiegids staat aangegeven welke regels gelden ten aanzien van verplichte deelname als voorwaarde voor
deelname aan het (deel)tentamen.
Bij onderwijseenheden waar sprake is van aanwezigheidsplicht is in de studiegids aangegeven welke regels gelden
als voorwaarde voor deelname aan het (deel)tentamen.
Bij deeltijd is geen sprake van aanwezigheidsplicht.

Artikel 3.6

Mondeling (deel)tentamen

1.

Een mondeling (deel)tentamen wordt altijd afgenomen door twee examinatoren.

2.

Als dit organisatorisch niet haalbaar is kan - met uitzondering van de afstudeeronderdelen - hiervan worden afgeweken. Het mondeling (deel)tentamen moet dan worden opgenomen.

3.

Een mondeling (deel)tentamen is niet openbaar, tenzij de examencommissie anders bepaalt.

Artikel 3.7

Normering van de beoordelingen

1.

De beoordeling van een tentamen van alle onderwijseenheden van de opleiding, inclusief minoren en
onderwijseenheden van trajecten gericht op een hoger kennisniveau, wordt uitgedrukt in een cijfer op de schaal
van 1 tot en met 10, voorzien van maximaal één decimaal.

2.

De beoordeling van een deeltentamen wordt uitgedrukt in een cijfer op een schaal van 1 tot en met 10, voorzien
van maximaal één decimaal, of met een woord-beoordeling: voldaan of onvoldoende. In de studiegids staat vermeld hoe een woord-beoordeling meeweegt in de totstandkoming van het cijfer voor de onderwijseenheid.

3.

De student heeft voor een tentamen een voldoende resultaat behaald, indien het toegekende resultaat
onafgerond het cijfer 5,5 of hoger is. De student heeft voor een deeltentamen een voldoende resultaat behaald,
indien het toegekende resultaat onafgerond het cijfer 5,5 of hoger is of de beoordeling ‘voldaan’ is behaald. Aan
deeltentamens kunnen geen rechten worden ontleend.

Onderwijs- en examenregeling Opleiding Human Resource Management

11

4.

Als het tentamen bestaat uit twee of meer deeltentamens die worden gecompenseerd, is de onderwijseenheid
behaald indien het gewogen gemiddelde van de deeltentamens onafgerond het cijfer 5,5 of hoger is. Compenseren
tussen onderwijseenheden is niet mogelijk.
Bij geïntegreerde herkansingen vervallen de resultaten van deeltentamens na afloop van het betreffende
studiejaar.

5.

Resultaten van onderwijseenheden behaald bij een buitenlandse instelling, die onderdeel uitmaken van het opleidingsprogramma, kunnen op verzoek van de student, op basis van de beschikbare grading table van de buitenlandse instelling en die van de HvA, door de examencommissie worden omgezet naar cijfers op een schaal van 1
tot 10.

6.

Bij het afsluiten van een onderwijseenheid is de hoogst behaalde beoordeling na afronding, bepalend voor de
vraag of de student de onderwijseenheid heeft behaald.

Artikel 3.8

Vaststelling en bekendmaking resultaten

1.

De beoordeling van een tentamen of deeltentamen geschiedt voor elke student afzonderlijk. De examinator(en)
stelt/stellen de beoordeling vast.

2.

Het resultaat van een tentamen of deeltentamen wordt uiterlijk 15 werkdagen na de afnamedatum of inleverdatum bekendgemaakt in SIS. Bij de nakijktermijn wordt rekening gehouden met de datum van de herkansing.

Artikel 3.9

Toekennen studiepunten

1.

De onderwijseenheid is behaald en de daarbij behorende studiepunten worden toegekend, indien de student voor
het tentamen een voldoende resultaat heeft behaald. Aan behaalde deeltentamens worden geen studiepunten
toegekend.

2.

Als de student voor een onderwijseenheid een vrijstelling heeft gekregen, is de onderwijseenheid behaald en worden de bijbehorende studiepunten toegekend.

3.

Als datum waarop de studiepunten zijn behaald, wordt de datum geregistreerd waarop het tentamen of het laatste deeltentamen is afgelegd dat heeft geleid tot het behalen van de onderwijseenheid. Voor vrijstelling geldt de
datum waarop de vrijstelling is toegekend.

Artikel 3.10

Inzage

1.

Tot uiterlijk 15 werkdagen na publicatie van de cijfers in SIS is inzage mogelijk. Bij het plannen van het inzagemoment wordt rekening gehouden met de datum van de herkansing.

2.

Indien de student op het betreffende moment om zwaarwegende redenen niet aanwezig kan zijn, kan zij het beoordeelde tentamen of deeltentamen inzien op afspraak met de examinator. De examencommissie beoordeelt of
er sprake is van zwaarwegende redenen.

Artikel 3.11
1.

Verlenen vrijstellingen voor (onderdelen van) onderwijseenheid

De examencommissie is bevoegd een studenten vrijstelling te verlenen op grond van:
Onderwijs- en examenregeling Opleiding Human Resource Management

12

a.

elders met goed gevolg afgelegde tentamens en examens in het hoger onderwijs, die naar het oordeel van de
examencommissie qua inhoud, omvang en niveau in voldoende mate overeenstemmen met de vrij te stellen
(onderdelen van een) onderwijseenheid.

2.

De student die in aanmerking wil komen voor een vrijstelling, dient hiertoe tijdig een schriftelijk gemotiveerd en
onderbouwd verzoek in bij de examencommissie, voor aanvang van het onderwijs in de onderwijseenheid waar de
vrijstelling voor wordt aangevraagd. Bij het verzoek moeten bewijsstukken worden overgelegd om aan te tonen
dat reeds is voldaan aan de vereisten voor de onderwijseenheden waarvoor vrijstelling wordt gevraagd.

3.

Een verleende vrijstelling voor (een onderdeel van) een onderwijseenheid in de hoofdfase is in principe onbeperkt
geldig, tenzij de vrijstelling wordt verleend voor één van de onderwijseenheden die in 9.6 zijn opgenomen.

4.

De examencommissie beoordeelt mede aan de hand van de overgelegde bewijsstukken of wordt voldaan aan de
vereisten gesteld voor de betreffende onderwijseenheid.

5.

De examencommissie kent een verzoek om een vrijstelling toe, indien zij van oordeel is dat de student voldoet aan
de vereisten van de betreffende onderwijseenheid, of voor onderdelen daarvan. De examencommissie informeert
de student digitaal over haar beslissing, binnen vier weken gerekend vanaf de datum waarop het verzoek is
ontvangen.

6.

Vrijstellingen worden in het resultatenoverzicht in SIS getoond met de omschrijving ‘vrijstelling’. Een deeltentamen
waarvoor de student vrijstelling heeft gekregen, telt niet mee in eventuele middelingen tot een eindcijfer van de
onderwijseenheid waar dit deeltentamen onderdeel van uitmaakt.

Artikel 3.12
1.

De geldigheid van tentamenresultaten en verleende vrijstellingen in de hoofdfase is onbeperkt.

Artikel 3.13
1.

Functiebeperking

Aan studenten met een functiebeperking kan de examencommissie aanpassingen ten aanzien van toetsing
toekennen toestaan. Een student met een functiebeperking die aanspraak wil maken op aanpassingen ten aanzien
van de toetsing, dient hiertoe een gemotiveerd verzoek in bij de examencommissie. Dit verzoek moet zijn voorzien
van een advies van de studentendecaan. Zie verder: Studeren met een functiebeperking.

Artikel 3.14
1.

Geldigheidsduur

Taalachterstand

Een student die een taalachterstand heeft doordat zij buiten Nederland is opgegroeid en een Nederlandstalige opleiding volgt, kan de examencommissie verzoeken om verlenging van de toetstijd en/of het gebruik mogen maken
van een niet-digitaal woordenboek bij het afnemen van tentamens of deeltentamens tijdens het eerste en tweede
jaar van inschrijving. Het verzoek moet zijn voorzien van een schriftelijk advies van de studentendecaan.

Onderwijs- en examenregeling Opleiding Human Resource Management

13

Hoofdstuk 4
Artikel 4.1

Regels bij het maken van (deel)tentamens

Aanmelden tentamens en deeltentamens

1.

De faculteit bepaalt of en hoe studenten zich aan moeten melden voor (deel)tentamens en herkansingen.

2.

Het toetsmoment direct volgend op het onderwijs geldt als de eerste gelegenheid. Er is sprake van een herkansing
als de student niet deelneemt aan de eerste gelegenheid of bij de eerste gelegenheid een onvoldoende heeft gehaald. Het niet benutten van gelegenheden verplicht de opleiding niet tot het aanbieden van meer dan twee toetsmomenten.
Als de student in een opvolgend studiejaar een onderwijseenheid opnieuw volgt uit een eerder studiejaar en gebruik maakt van de aansluitende eerste gelegenheid is er sprake van een herkansing.

Artikel 4.2
1.

Afname tentamens en deeltentamens

Bij het afnemen van tentamens en deeltentamens gelden de regels van de Tentamenafname protocollen.

Artikel 4.3

Eigen/individueel werk

a.

De studenten maken het tentamen of deeltentamen individueel, en mogen daarbij gebruik maken van de toegestane hulpmiddelen. Een uitzondering op het individueel maken zijn tentamens en deeltentamens in de vorm van
groepsopdrachten. Hierbij geldt dat elk groepsproduct een individueel herkenbare prestatie van iedere student
bevat op basis van de leerdoelen.

b.

De studenten leveren bij tentamens en deeltentamens altijd eigen werk in. Bij het aanhalen of citeren van werk
van anderen passen de studenten de afgesproken regels voor bronvermelding toe.

c.

Overtreedt de student één of meer van de bepalingen omschreven in artikelen 4.4 en 4.6 dan is er sprake van plagiaat en/of fraude.

Artikel 4.4
1.

Omschrijving plagiaat

Onder plagiaat verstaan we het:
a. gebruik maken dan wel overnemen van andermans teksten, gegevens, ideeën of beelden zonder volledige en
correcte bronvermelding;
b. presenteren als eigen werk of eigen gedachten, dan wel het centrale gedachtegoed uit bronnen van derden,
zelfs indien een verwijzing naar andere auteurs is opgenomen;
c. niet duidelijk aangeven in de tekst, bijvoorbeeld via aanhalingstekens of een bepaalde vormgeving, dat letterlijk
of bijna letterlijk citaten in het werk zijn overgenomen, zelfs indien met een correcte bronvermelding;
d. parafraseren van de inhoud van andermans teksten zonder voldoende bronverwijzingen;
e. overnemen van (delen van) mediabestanden of andere bronnen, broncodes van software, modellen en andere
schema’s van anderen zonder verwijzing en zodoende deze laten doorgaan voor eigen werk;
f. indienen van een eerder ingediende of daarmee vergelijkbare tekst voor opdrachten van andere
opleidingsonderdelen zonder bronvermelding;
Onderwijs- en examenregeling Opleiding Human Resource Management

14

g. overnemen van werk van medestudenten en dit laten doorgaan voor eigen werk;
h. indienen van werkstukken die verworven zijn van een commerciële instelling of die – al dan niet tegen betaling
- door iemand anders zijn geschreven.
2.

Afhankelijk van de concrete omstandigheden kunnen ook andere gedragingen als plagiaat worden aangemerkt.

3.

Van medeplichtigheid is in ieder geval sprake indien het overnemen van werk van medestudenten gebeurt met
toestemming en/of medewerking van de medestudent.

4.

Indien in een gezamenlijk werkstuk door een van de auteurs plagiaat wordt gepleegd, zijn de andere auteurs medeplichtig aan plagiaat, indien zij hadden kunnen of moeten weten dat plagiaat werd gepleegd.

5.

Voor het vaststellen van plagiaat zoals bedoeld in dit hoofdstuk is geen opzet vereist.

Artikel 4.5
1.

De examinatoren en de examencommissie zijn bevoegd het ingeleverde werk te controleren op plagiaat en kunnen
daarbij gebruik maken van detectieprogramma’s voor plagiaat. Met het inleveren van een te beoordelen tekst geven de studenten toestemming tot het opnemen van de tekst in de database van het betreffende detectieprogramma.

Artikel 4.6
1.

Plagiaatdetectie

Omschrijving (ernstige) fraude

Onder fraude wordt verstaan elk handelen, nalaten, pogen tot of toelaten van gedrag, dat het op juiste wijze vormen van een correct en eerlijk oordeel over iemands kennis, inzicht en vaardigheden, of (beroeps)houding, geheel
of gedeeltelijk onmogelijk maakt. Onder fraude verstaan we onder meer:
a. tijdens het (deel)tentamen beschikken over hulpmiddelen die niet zijn toegestaan;
b. tijdens het (deel)tentamen afkijken of, binnen of buiten de tentamenruimte, informatie uitwisselen;
c. zich tijdens het (deel)tentamen uitgeven voor iemand anders;
d. zich tijdens het (deel)tentamen door iemand anders laten vertegenwoordigen;
e. zich voor de datum of het tijdstip waarop het tentamen zal plaatsvinden, in het bezit stellen van de opgaven
van het desbetreffende tentamen;
f. het fingeren en/of vervalsen van enquêteresultaten, interview-antwoorden of onderzoekgegevens.

2.
3.

Fraude kan zowel gelden voor het eigen (deel)tentamen als ook voor het gelegenheid geven aan andere studenten
om fraude te plegen.
Onder ernstige fraude wordt in ieder geval verstaan fraude zoals beschreven onder c en d en plagiaat zoals beschreven onder h bij artikel 4.4. Herhaalde fraude wordt ook aangemerkt als ernstige fraude.

4.

Afhankelijk van de concrete omstandigheden kunnen ook andere gedragingen als fraude worden aangemerkt.

5.

Voor het vaststellen van fraude zoals bedoeld in dit hoofdstuk is geen opzet vereist. Het vermoeden van fraude
kan zowel voor, tijdens als na afloop van een (deel)tentamen worden vastgesteld. Dit laatste kan onder meer het

Onderwijs- en examenregeling Opleiding Human Resource Management

15

geval zijn als bij correctie blijkt dat een groot deel van de gegeven antwoorden - waaronder ook foutieve antwoorden - bij twee of meer studenten (nagenoeg) identiek zijn.

Artikel 4.7

Procedure bij plagiaat en/of fraude

1.

Wanneer er een ernstig vermoeden bestaat dat een student fraudeert of plagieert, deelt de examinator of
surveillant dit mee aan de examencommissie.

2.

De examencommissie stelt vast of de student inderdaad fraude - ernstige fraude daaronder begrepen - of plagiaat
heeft gepleegd. Is dit het geval, dan deelt de examencommissie dit de student schriftelijk mede, met de hieraan
verbonden sanctie. De examencommissie stelt - voordat zij een besluit neemt - de student binnen een termijn van
10 werkdagen na melding, in de gelegenheid te worden gehoord.

3.

Indien fraude of plagiaat is vastgesteld kan de examencommissie voor een termijn van maximaal één jaar de
student het recht ontnemen aan bepaalde (deel)tentamens deel te nemen. In geval van ernstige fraude kan de
examencommissie de decaan adviseren de inschrijving van de betrokken student te beëindigen.

4.

Wordt fraude vastgesteld, dan kan de examencommissie besluiten eerder ingeleverd werk van de betreffende
student te onderzoeken op fraude en, indien fraude wordt geconstateerd, daar alsnog sancties aan verbinden.

5.

Staat fraude of plagiaat onherroepelijk vast, dan wordt in SIS vastgelegd dat de student heeft deelgenomen aan
het tentamen of deeltentamen, maar wegens fraude geen beoordeling heeft ontvangen.

Onderwijs- en examenregeling Opleiding Human Resource Management

16

Hoofdstuk 5
Artikel 5.1

Studieadvies

Studieadvies propedeuse einde 1e jaar van inschrijving

1.

Namens de decaan brengt de examencommissie aan iedere student, aan het einde van haar eerste jaar van
inschrijving voor de propedeuse van de opleiding, advies uit over de voortzetting van haar studie binnen de
opleiding.

2.

Het studieadvies wordt per e-mail aan de studenten kenbaar gemaakt, en mag niet later worden verstuurd dan 24
augustus. Voor studenten die zijn ingestroomd in februari is de uiterste verzenddatum 24 februari.

3.

Het studieadvies heeft een negatief bindend karakter indien de student, met inachtneming van persoonlijke
omstandigheden (zie artikel 5.4), minder dan 50 studiepunten voor onderwijseenheden uit de propedeuse heeft
behaald. Resultaten behaald door vrijstelling tellen mee bij de vaststelling of het minimum van 50 studiepunten is
behaald.

4.

Studenten die hun inschrijving bij de opleiding in de loop van het eerste jaar van inschrijving tussentijds hebben
beëindigd, ontvangen aan het einde van het studiejaar een studieadvies propedeuse en dat kan ook een negatief
bindend studieadvies zijn, tenzij er - gelet op de persoonlijke omstandigheden van de student - voor de
examencommissie aanleiding bestaat geen negatief bindend studieadvies uit te brengen.

5.

Studenten die zijn ingestroomd in de opleiding per 1 februari in een speciaal voor die groep van studenten
samengesteld programma, vallen eveneens onder de bepalingen van de vier voorgaande leden, waarbij het woord
“jaar” uit het eerste lid vervangen moet worden door de woorden “12 maanden”. In afwijking van de vorige volzin
kan het woord “jaar” ook vervangen worden door de woorden “13 maanden”. Deze (dubbele) uitzondering ten
opzichte van de reguliere instroom vindt plaats op grond van organisatorische redenen die worden veroorzaakt
door een afwijkende opbouw van het studiejaar bij de februari-instroom.

Artikel 5.2

Opschorten studieadvies propedeuse

1.

Indien de examencommissie aan het einde van het eerste jaar van inschrijving voor de propedeuse geen oordeel
kan vormen over de geschiktheid voor de opleiding vanwege persoonlijke omstandigheden van de student, kan zij
besluiten geen studieadvies uit te brengen in het eerste jaar van inschrijving.

2.

Het studieadvies wordt in dat geval opgeschort naar het einde van het tweede jaar van inschrijving. De student
krijgt hiervan per e-mail bericht van de examencommissie.

1.

2.

Artikel 5.3

Bij opschorting wordt het studieadvies uiterlijk aan het einde van het tweede jaar van inschrijving afgegeven. Dit
heeft een negatief bindend karakter indien de student, met inachtneming van haar persoonlijke omstandigheden,
aan het einde van haar tweede jaar van inschrijving de propedeuse niet heeft behaald.

Voor het afgeven van het studieadvies in het tweede jaar geldt dezelfde procedure als bij het uitbrengen van een
regulier studieadvies.

Artikel 5.4
1.

Studieadvies propedeuse einde 2e jaar van inschrijving

Persoonlijke omstandigheden

Persoonlijke omstandigheden zijn:
Onderwijs- en examenregeling Opleiding Human Resource Management

17

a.

ziekte;

b.

functiebeperking;

c.

zwangerschap;

d.

bijzondere familieomstandigheden;

e.

topsport;

f.

het lidmaatschap van medezeggenschapsraad, deelraad of opleidingscommissie;

g.

het lidmaatschap van het bestuur van een actieve studentenorganisatie van enige omvang met volledige
rechtsbevoegdheid.

2.

De student moet de persoonlijke omstandigheden tijdig melden bij de studentendecaan. De studentendecaan
brengt advies uit aan de examencommissie.

Artikel 5.5

Voorwaarden studieadvies

1.

Voorwaarde voor het uitbrengen van een negatief bindend studieadvies is dat de student gedurende het studiejaar
ten minste eenmaal per e-mail en op een redelijke termijn door de opleiding is gewaarschuwd dat zij een negatief
bindend studieadvies zal kunnen ontvangen, alsmede wat de gevolgen daarvan zijn.

2.

De examencommissie beslist pas over het uitbrengen van een negatief bindend studieadvies aan een student,
nadat de studentendecaan om advies is gevraagd ten aanzien van door de student bij de studentendecaan
gemelde persoonlijke omstandigheden (zie artikel 5.4).

3.

De studentendecaan brengt een schriftelijk advies alleen uit indien de student de persoonlijke omstandigheden
tijdig heeft gemeld bij de studentendecaan. Een melding wordt in dit verband aangemerkt als tijdig wanneer de
student de omstandigheden meldt zodra deze zich voordoen, dan wel zeer spoedig daarna.

4.

De examencommissie stelt, voorafgaand aan het uitbrengen van een negatief bindend studieadvies, de student in
de gelegenheid te worden gehoord.

Artikel 5.6
1.

Gevolgen negatief bindend studieadvies

Studenten die een negatief bindend studieadvies hebben ontvangen, kunnen niet meer aan de HvA voor dezelfde
opleiding worden ingeschreven.
Bovenstaande bepaling geldt tevens voor de volgende opleiding(en) waarmee de opleiding waarbij de stu1a
dent was ingeschreven, een gemeenschappelijke propedeuse heeft: Bedrijfskunde deeltijd.

2.

De student die een negatief bindend studieadvies heeft ontvangen kan na een jaar een verzoek indienen voor
inschrijving bij dezelfde opleiding of bij een andere opleiding, waarop het ontvangen negatief bindend studieadvies
van toepassing is. De examencommissie besluit alleen positief op dat verzoek indien de student voldoende
aannemelijk kan maken dat zij de opleiding alsnog binnen redelijke termijn met goed gevolg kan afronden.

Onderwijs- en examenregeling Opleiding Human Resource Management

18

Hoofdstuk 6
Artikel 6.1

Examens, propedeusediploma en getuigschrift

Examens

1.

De propedeuse en de hoofdfase worden elk afgesloten met een examen. De student heeft het examen behaald,
indien alle onderwijseenheden van de betreffende fase of het betreffende programma met goed gevolg zijn
afgelegd, dan wel daarvoor vrijstelling is verkregen.

2.

De student kan het examen in de hoofdfase alleen behalen als het propedeutisch examen is behaald, of vrijstelling
is verleend voor het afleggen daarvan.

Artikel 6.2

Propedeusediploma en getuigschrift

1.

De examencommissie reikt een propedeusediploma met cijferlijst uit aan studenten die het propedeutisch examen
hebben behaald en een getuigschrift met cijferlijst aan studenten die het examen van de hoofdfase hebben behaald. Een student die vrijstelling heeft gekregen voor de gehele propedeuse ontvangt geen propedeusediploma.

2.

Indien de student met goed gevolg een honourstraject (intra- of extracurriculair) of honoursminor) heeft afgesloten wordt dit vermeld op het getuigschrift. De naam van het traject staat vermeld op de cijferlijst.

3.

De cijfers op de cijferlijst zijn afgerond op hele cijfers.

4.

Bij het getuigschrift ontvangt de student, naast de cijferlijst, een Engelstalig diplomasupplement.

5.

De slaagdatum op het propedeusediploma of getuigschrift valt in de maand waarin de student het laatste tentamen heeft afgelegd.

6.

Een student kan de examencommissie verzoeken het getuigschrift nog niet uit te reiken.

Artikel 6.3
1.

Graad

Het college van bestuur verleent de graad Bachelor of Arts, indien het examen in de hoofdfase met goed gevolg is
afgelegd.

Artikel 6.4

Berekening gemiddelde en cum-laude-regeling

1.

Het gemiddelde eindcijfer van de propedeuse of de hoofdfase is het gewogen rekenkundige gemiddelde van alle
tentamencijfers van de onderwijseenheden van het programma van de propedeuse of de hoofdfase. Zie verder:
HvA Toetsbeleid.

2.

Onderwijseenheden waarvoor de student een vrijstelling heeft gekregen en extra-curriculaire studieonderdelen
tellen niet mee in de berekening van het gewogen gemiddelde eindcijfer. Wanneer voor meer dan eenderde van
de studiepunten van het programma van de propedeuse of de hoofdfase vrijstelling is verleend, wordt geen gemiddeld eindcijfer verstrekt en komt de student niet in aanmerking voor het predicaat cum laude.

3.

De student komt in aanmerking voor het predicaat ‘cum laude’ op het propedeusediploma, als is voldaan aan de
volgende voorwaarden:
a.

de propedeuse in maximaal één jaar is behaald;

Onderwijs- en examenregeling Opleiding Human Resource Management

19

b.

het gewogen gemiddelde eindcijfer van de tentamencijfers van de onderwijseenheden op de cijferlijst van het
propedeutisch examen, is onafgerond ten minste het cijfer 8,0;

4.

De student komt in aanmerking voor het predicaat ‘cum laude’ op het getuigschrift, als is voldaan aan de volgende
voorwaarden:
a.

de opleiding binnen de nominale studieduur is behaald;

b.

het gewogen gemiddelde eindcijfer van de tentamencijfers van de onderwijseenheden op de cijferlijst van de
hoofdfase, is onafgerond ten minste het cijfer 8,0;

c.

de onderwijseenheid: “Afstudeeropdracht”, “Verdieping HR Data”, “Team Optimalisatie en Interventie”
(voltijd) of “Eindopdracht en PP-eindassessment” (deeltijd) is minimaal onafgerond met het cijfer 8,0
gekwalificeerd.

5.

Het beoordelen van de toekenning van het predicaat ‘cum laude’ vindt plaats door de examencommissie.

Artikel 6.5
1.

Verklaring

Een student die meer dan één tentamen met goed gevolg heeft afgelegd en aan wie geen propedeusediploma of
getuigschrift kan worden uitgereikt, ontvangt desgevraagd een verklaring van de examencommissie waarin de tentamens staan vermeld die met goed gevolg zijn afgelegd.

Onderwijs- en examenregeling Opleiding Human Resource Management

20

Hoofdstuk 7
Artikel 7.1

Examencommissie en College van beroep

Verzoeken aan examencommissie

1.

Iedere opleiding heeft een examencommissie. De examencommissie stelt op objectieve en deskundige wijze vast
of de student voldoet aan de voorwaarden uit de Onderwijs- en examenregeling en aan de eindkwalificaties van de
opleiding.

2.

De student kan zich tot de examencommissie wenden voor onder andere de volgende verzoeken: een verzoek
a.

tot vrijstelling van een of meer (deel)tentamens (zie artikel 3.11);

b.

om een extra (deel)tentamen af te leggen (zie artikel 3.3);

c.

tot verlenging van de geldigheidsduur van een met goed gevolgd afgelegd (deel)tentamen (zie artikel 3.12);

d.

tot goedkeuring van een minor keuze (zie artikel 2.8);

e.

om voorzieningen en aanpassingen bij toetsing vanwege een functiebeperking of chronische ziekte (zie artikel
3.13);

f.

tot verlenging van toetstijd en gebruik van een woordenboek in het kader van taalachterstand (zie artikel
3.14);

g.

om aangepaste inroostering van (deel)tentamens vanwege het beoefenen van topsport of eigen onderneming
(zie artikel 3.4).

h.

indien van toepassing, tot goedkeuring van de samenstelling van een studieprogramma.

Artikel 7.2
1.

Beroep bij het College van beroep voor de examens (COBEX)

De student kan binnen zes weken beroep aantekenen bij het College van beroep voor de examens (COBEX) als zij
het niet eens is met een beslissing van de examencommissie of examinator(en). Meer informatie over COBEX en
hoe de student beroep kan aantekenen staat beschreven in het hoofdstuk Rechtsbescherming studenten in het
Studentenstatuut.

Onderwijs- en examenregeling Opleiding Human Resource Management

21

Hoofdstuk 8
Artikel 8.1

Geldigheid Onderwijs- en examenregeling

Reikwijdte

1.

De Onderwijs- en examenregeling in het studiejaar 2019-2020 is van toepassing op de studenten die staan ingeschreven bij de opleiding(en) genoemd in dit document.

2.

Met uitzondering van de bepalingen op het gebied van onderwijs en studiebegeleiding geldt de Onderwijs- en examenregeling ook voor extraneï (dit zijn studenten die geen onderwijs volgen maar wel (deel)tentamens afleggen).
Waar ‘student’ staat, kan in voorkomende gevallen dus ook ‘extraneus’ worden gelezen.

3.

In gevallen waarin de bepalingen van de Onderwijs- en examenregeling niet voorzien, beslist de decaan van de faculteit waartoe de opleiding behoort.

Artikel 8.2
1.

Vaststelling

De Onderwijs- en examenregeling wordt jaarlijks vastgesteld door de decaan van de faculteit waar de opleiding toe
behoort, na advies over en/of instemming op de betreffende onderdelen door de opleidingscommissie en de deelraad.

Artikel 8.3

Geldigheid en ingangsdatum

1.

De Onderwijs- en examenregeling geldt voor de duur van één studiejaar. Een Onderwijs- en examenregeling van
een vorig studiejaar is dan ook niet meer geldig in een nieuw studiejaar. Indien nodig worden er overgangsmaatregelen getroffen voor zittende studenten wanneer er regels of bepalingen worden gewijzigd. Als er sprake is van
overgangsmaatregelen is dit beschreven in artikel 8.4.

2.

Gedurende het studiejaar kan de Onderwijs- en examenregeling alleen worden gewijzigd als er sprake is van overmacht en studenten niet onevenredig worden benadeeld. Over een tussentijdse wijziging beslist de decaan.
De ingangsdatum van de Onderwijs- en examenregeling is 1 september 2019.

3.

Artikel 8.4

Niet van toepassing

Overgangsmaatregelen

Onderwijs- en examenregeling Opleiding Human Resource Management

22

Hoofdstuk 9
9.1

Toetsprogramma’s

Propedeuse

Opleiding:

human resources man. vt

Variant:

voltijd

Studieplan:

50971

CROHO-nummer:

34609

Onderwijseenheden Propedeutische fase - 60 stp (Jaar 1)
Onderwijseenheid

Aantal
EC

Tentamen- Toetsvorm(en)
moment

Herkansing Toetsvorm(en)

Praktijk 1 Project Oriëntatie op HRM

3

Blok 1

Product

Blok 2

Product

Kennis 1 Oriëntatie op HRM

5

Blok 1

Toets schriftelijk

Blok 2

Toets schriftelijk

Recht 1 Inleiding Recht

3

Blok 1

Toets schriftelijk

Blok 2

Toets schriftelijk

Praktijk 2 Werving en Selectie

3

Blok 2

Product

Blok 3

Product

Kennis 2 Werving en Selectie

5

Blok 2

Toets schriftelijk

Blok 3

Toets schriftelijk

Recht 2 De Overeenkomst

3

Blok 2

Toets schriftelijk

Blok 3

Toets schriftelijk

Praktijk 3 Doorstroom

3

Blok 3

Product

Blok 4

Product

Kennis 3 Doorstroom

5

Blok 3

Toets schriftelijk

Blok 4

Toets schriftelijk

Recht 3 Sociale Zekerheid

3

Blok 3

Product / Toets schriftelijk

Blok 4

Toets schriftelijk

Praktijk 4 Reorganisatie en Uitstroom

3

Blok 4

Product

Blok 4

Product

Kennis 4 Reorganisatie en Uitstroom

5

Blok 4

Toets Digitaal

Blok 4

Toets Digitaal

Recht 4 Ontslagrecht

3

Blok 4

Product / Toets schriftelijk

Blok 4

Toets schriftelijk

HR Metrics 1 - Semester 1

2

Blok 1+2

Toets Digitaal

Blok 3

Toets Digitaal

HR Metrics 2 - Semester 2

2

Blok 3+4

Toets Digitaal

Blok 4

Toets Digitaal

Professioneel Schrijven - Semester 1

3

Blok 1+2

Paper / Toets Digitaal

Blok 2+3

Paper / Toets Digitaal

Professioneel Schrijven - Semester 2

3

Blok 3+4

Paper

Blok 4

Paper

Studieloopbaanbegeleiding

2

Blok 4

Product

Blok 4

Product

Training

4

Gehele jaar Assessment

Gehele jaar Assessment

Pilot jaar 1
Vanaf het tweede blok kunnen er één of twee klassen starten met een pilot. Deze studenten zullen voor verschillende studie-eenheden opdrachten uitvoeren in het werkveld.
Deze studie-delen zullen dan mogelijk worden afgesloten met assessments en niet met de toetsvormen die in de
lessentabel staan opgenomen. Deze alternatieve toetsvormen zullen worden voorgelegd aan de Opleidingscommissie en Examencommissie ter instemming.
Studenten krijgen vooraf de keuze of zij aan een dergelijke pilot willen deelnemen.

Onderwijs- en examenregeling Opleiding Human Resource Management

23

Deeltijd
Opleiding:

human resources man. dt

Variant:

deeltijd

Studieplan:

50982

CROHO-nummer:

34609

Onderwijseenheden Propedeutische fase - 60 stp (Jaar 1)
Studiegidsnum
mer

Werkvorm (wit)
Toetsvorm (grijs)

Titel

Studi
e
punt
en
(ECTS
)

1100OV__19

Onderwijseenheid

Organisatieverkenning

30

1100OV1_19

1119OV1_PO

Toetsvorm: Portfolio

OV1 Organisatieverkenning 1
OV1 Organisatieverkenning 1
WC
OV1 Organisatieverkenning
1 PO

7

1119OV1_WC

Onderdelen
Werkcoll. /
instructiecollege

1100OV2_19

1119OV2_PO

Toetsvorm: Portfolio

OV2 Organisatieverkenning 2
OV2 Organisatieverkenning 2
WC
OV2 Organisatieverkenning
2 PO

8

1119OV2_WC

Onderdelen
Werkcoll. /
instructiecollege

1100OV3_19

1119OV3_PO

Toetsvorm: Portfolio

OV3 Organisatieverkenning 3
OV3 Organisatieverkenning 3
WC
OV3 Organisatieverkenning
3 PO

7

1119OV3_WC

Onderdelen
Werkcoll. /
instructiecollege

1100OV4_19

Onderdelen
Werkcoll. /
instructiecollege
Toetsvorm:
Assessment

OV4 Organisatieverkenning 4
OV4 Organisatieverkenning 4
WC
OV4 Organisatieverkenning
4 AS

8

1100MO__19

Onderwijseenheid

30

1100MO1_19
1119MO1_WC

Onderdelen
Werkcoll. /
instructiecollege

1119MO1_PO

Toetsvorm: Portfolio

1100MO2_19
1119MO2_WC

Onderdelen
Werkcoll. /
instructiecollege

1119MO2_PO

Toetsvorm: Portfolio

1100MO3_19

Onderdelen

Managen & Organiseren
MO1 Managen &
Organiseren 1
MO1 Managen &
Organiseren 1 WC
MO1 Managen &
Organiseren 1 PO
MO2 Managen &
Organiseren 2
MO2 Managen &
Organiseren 2 WC
MO2 Managen &
Organiseren 2 PO
MO3 Managen &
Organiseren 3

Wegi
ng
(%)

Minimu
m
Waarde
(cijfer)

Afname Afname
Centraal: (Deel)tentamen
door OB in
Decentra
al: door
de
docent

Afname
Herkansi
ng in

100

5,5

Decentra Semester 1 al
Geheel

Op
afspraak

100

5,5

Decentra Semester 1 al
Geheel

Op
afspraak

100

5,5

Decentra Semester 1 al
Geheel

Op
afspraak

100

5,5

Decentra Semester 1 al
Geheel

Op
afspraak

100

5,5

Decentra Semester 2 al
Geheel

Op
afspraak

100

5,5

Decentra Semester 2 al
Geheel

Op
afspraak

Semester 1

1119OV4_WC
1119OV4_AS

Semester 2
7

8

7

Onderwijs- en examenregeling Opleiding Human Resource Management

24

MO3 Managen &
Organiseren 3 WC
MO3 Managen &
1119MO3_PO Toetsvorm: Portfolio
Organiseren 3 PO
100
MO4 Managen &
1100MO4_19
Onderdelen
Organiseren 4
8
Werkcoll. /
MO4 Managen &
1119MO4_WC instructiecollege
Organiseren 4 WC
Toetsvorm:
MO4 Managen &
1119MO4_AS
Assessment
Organiseren 4 AS
100
*Herkansingen op afspraak kunnen in hetzelfde of daaropvolgende blok plaatsvinden
1119MO3_WC

9.2

Werkcoll. /
instructiecollege

5,5

Decentra Semester 2 al
Geheel

Op
afspraak

5,5

Decentra Semester 2 al
Geheel

Op
afspraak

Hoofdfase (incl. afstudeerrichtingen en minoren)

Onderwijseenheden Postpropedeutische fase - 60 stp (Jaar 2)
Onderwijseenheid

Aant
al
EC

Tentame
nmoment

Toetsvorm(en)

Herkansi
ng

Toetsvorm(en)

Project Flexicurity

5

Blok 1

Presentatie / Product

Blok 2

Presentatie / Product

Kennis Flexicurity

5

Blok 1

Blok 2

Project Leren en Verandering in Organisaties

5

Blok 2

Toets schriftelijk
Opdracht / Presentatie /
Product

Toets schriftelijk
Opdracht / Presentatie /
Product

Kennis Leren en Veranderen in Organisaties

5

Blok 2

Opdracht / Toets schriftelijk Blok 3

Blok 3

Toets schriftelijk

Project Strategisch HRM en HR Data

5

Blok 3

Product

Blok 4

Product

Strategisch HRM en HR Data

5

Blok 3

Toets Digitaal
Paper / Presentatie /
Product

Blok 4

Toets Digitaal
Paper / Presentatie /
Product

Toets schriftelijk

Blok 4
Gehele
jaar

Project Performance: Advies en Implementatie

5

Blok 4

Kennis Performance: Advies en Implementatie

5

Business and Communication in English
HR Onderzoek: Kwalitatieve Dataverzameling en
-Analyse

2

Blok 4
Gehele
jaar

2

Blok 1

Product

Blok 1

Product

HR Onderzoek: Kritische Literatuurverkenning

2

Blok 2

Product

Blok 2

Product

HR Onderzoek: Ontwerp en Uitvoering

4

Product / Toets schriftelijk

Blok 3+4

Product / Toets schriftelijk

Juridisch HRM

4

Product / Toets schriftelijk

2

Trainingen Adviesvaardigheden

4

Blok 4
Gehele
jaar
Gehele
jaar

Product / Toets schriftelijk

Studieloopbaanbegeleiding

Blok 3+4
Gehele
jaar
Gehele
jaar
Gehele
jaar

Portfolio / Toets schriftelijk

Product
Assessment

Blok 4

Toets schriftelijk
Portfolio / Toets schriftelijk

Product
Assessment

Voltijd instroom jaar 3 (jaar 2 van de hoofdfase, Stage en Minor)
Instroomeis jaar 3:
• Propedeuse: 60 studiepunten
• Jaar 2: 50 studiepunten
Voor de instroom naar jaar 3 geldt dat een student op de dag dat het semester start de Propedeuse geheel en 50
studiepunten uit jaar twee (jaar 1 van de hoofdfase) moet hebben behaald.
Een aanvullende eis geldt voor de studenten die stage willen lopen in het buitenland. Voor de buitenlandse stage
geldt dat een student op de dag dat het semester start de Propedeuse moet hebben afgerond en 60 studiepunten
uit jaar twee (jaar 1 van de hoofdfase) moet hebben behaald.
Onderwijs- en examenregeling Opleiding Human Resource Management

25

Onderwijseenheden Postpropedeutische fase - 60 stp (Jaar 3)
Onderwijseenheid

Aantal
EC

Tentamen- Toetsvorm(en)
moment

Stage
30
Semester 1 Assessment / Product
*Herkansingen op afspraak kunnen in hetzelfde of daaropvolgende blok plaatsvinden

Herkansing

Toetsvorm(en)

Op afspraak Assessment / Product

Onderwijseenheden Minoren - 30 stp
Onderwijseenheid

Aant
al
EC

Tentamenmoment

Toetsvorm(en)

Arbeidsrecht

30

De Arbeidsovereenkomst

4

Toets schriftelijk

Toets schriftelijk

Positie Werknemer

4

Toets schriftelijk

Toets schriftelijk

Beëindiging van de Arbeidsovereenkomst

4

Toets schriftelijk

Toets schriftelijk

De Arbeidsrechtpraktijk

12

Jij als Juridisch Adviseur

6

Opdracht
Portfolio / Toets
mondeling

Opdracht
Portfolio / Toets
mondeling

Human Resource Management

30

HRM

14

Product / Toets schriftelijk

Product / Toets schriftelijk

Gespreksvaardigheden

4

Recht & Ethiek

9

Assessment
Assessment / Toets
schriftelijk

Assessment
Assessment / Toets
schriftelijk

Leiderschap

3

Toets schriftelijk

Toets schriftelijk

Semester
1+2

Herkansing

Toetsvorm(en)

Semester
1+2

Semester
1+2

Semester
1+2

International Teams and Organisations

30

Globalisation Economy

4

Semester 2
Presentatie / Product

Semester 2
Presentatie / Product

International HR

5

Product / Toets schriftelijk

Product / Toets schriftelijk

Cross Cultural Management

4

Presentatie / Product

Presentatie / Product

Cross Cultural Competence

5

Product

Product

Digital Communication Skills

4

Product

Product

Methodology Lab

2

Assessment

Assessment

Project International Management

6

Presentatie / Product

Presentatie / Product

Persoonlijk Leiderschap voor Young
Professionals

30

Young Professional Skills

15

Assessment

Assessment

Young Professional Project

15

Product

Product

Psychologie van Leren Veranderen in
Organisaties

30

Change Agent Skills

15

Portfolio

Portfolio

Practical Assignment

15

Product

Product

Train the Trainer

30

Train the Trainer - Basic

15

Portfolio

Portfolio

Train the Trainer - Advanced

15

Opdracht

Opdracht

Semester
1+2

Semester
1+2

Semester
1+2

Semester
1+2

Semester 1

Semester 1

Onderwijs- en examenregeling Opleiding Human Resource Management

26

Voltijd instroom jaar 4 (Jaar 3 hoofdfase, Peperclip)
Instroomeis jaar 4
•
Propedeuse: 60 studiepunten
•
Jaar 2: 60 studiepunten
•
Jaar 3: Stagesemester compleet afgerond (30 EC behaald) en een minorprogramma doorlopen.
Voor de instroom naar jaar 4 geldt dat een student op de dag dat het semester start de Propedeuse moet hebben
afgerond en 60 studiepunten uit jaar twee (jaar 1 van de hoofdfase) moet hebben behaald.
Verder wordt er verwacht dat de student de stage volledig (alle 30 studiepunten) heeft afgerond. Uitzondering
hierop zijn de studenten die in het buitenland stage hebben gelopen aangezien zij de trainingen uit de stage niet
hebben kunnen volgen. In dit geval mogen alleen de trainingen uit de stage open staan.
Alvorens te mogen starten met het vierde jaar moet de student zowel stage hebben gelopen als een minor hebben
gevolgd.
Studenten die één enkele studie-eenheid of maximaal 5 studiepunten uit jaar twee niet hebben behaald kunnen
op advies van de studieadviseur worden toegelaten. Voorwaarde is dat de student samen met de studieadviseur
een haalbaar studieplan heeft opgesteld.

Voltijd instroom afstudeersemester (semester 8)
Instroomeis afstuderen
• Propedeuse: 60 studiepunten
• Jaar 2: 60 studiepunten
• Jaar 3: 60 studiepunten
• Jaar 4: Adviesopdracht 1 en 2 voldoende afgerond
Voor het afstudeersemester verwachten wij dat de student het gehele eerste, tweede en derde jaar heeft afgerond. Hiermee zijn alle werkterreinen op niveau twee getoetst.
Vanuit Peperclip moet de student Adviesopdracht 1 en 2 voldoende hebben afgerond voor de start van het afstudeersemester. De student die een Adviesopdracht uit Peperclip moet herkansen kan dat doen in het eerste (of
derde) blok en starten met het afstudeersemester in blok twee (of vier). Studenten kunnen elk blok starten met
afstuderen.
Studenten mogen TOI en HR data open hebben staan aangezien dit afzonderlijke afstudeeronderdelen zijn. Deze
dienen wel te worden afgesloten voor het afstudeerassessment. De student mag elk van de vier jaarlijkse gelegenheden voor deze onderdelen benutten om deze onderdelen af te ronden. De student heeft recht op twee kansen
maar mag vier maal deelnemen.

Voltijd instroom afstudeerprogramma februari 2020
De studenten die starten met het derde jaar van de hoofdfase in februari 2020 zullen afstuderen in het nieuwe afstudeerprogramma. Hierin worden verschillende beroepsproducten opgeleverd met een studielast van zestig studiepunten over de periode van twee semesters. Deze samen vormen de basis voor het eindassessment waarmee
de student de opleiding afrond. Studenten die starten in februari 2020 kunnen pas in januari 2021 de volle 60 studiepunten hebben behaald.
Instroomeis afstudeerprogramma
• Propedeuse: 60 studiepunten
Onderwijs- en examenregeling Opleiding Human Resource Management

27

•
•

Jaar 2: 60 studiepunten
Jaar 3: 60 studiepunten

Studenten die één enkele studie-eenheid of maximaal 5 studiepunten uit jaar twee niet hebben behaald kunnen
op advies van de studieadviseur worden toegelaten. Voorwaarde is dat de student samen met de studieadviseur
een haalbaar studieplan heeft opgesteld.

Onderwijseenheden Postpropedeutische fase - 60 stp (Jaar 4)
Onderwijseenheid

Aantal
EC

Tentamen- Toetsvorm(en)
moment

Herkansing Toetsvorm(en)

Van 1 september tot en met 31 augustus
Verdieping HR Data

3

Blok 1

Presentatie / Toets Digitaal

Blok 1

Team Optimalisatie en Interventie

3

Blok 1

Product / Toets schriftelijk

Blok 2

Presentatie / Toets Digitaal
Product / Toets schriftelijk

Extern HR Advies 1

10

Blok 1

Product

Blok 1

Product

Extern HR Advies 2

10

Blok 2

Product

Blok 2

Product

Ontwikkeling tot HR Professional

4

Semester 1 Assessment / Paper

Semester 1 Assessment / Paper

Afstudeeropdracht

30

Semester 1 Paper / Presentatie / Product

Semester 1 Paper / Presentatie / Product

60

Semester 2 Hoorcollege

Semester 2 Hoorcollege

Van 1 februari tot en met 31 augustus
Afstudeerprogramma HRM

Deeltijd
Deeltijd instroom semester ‘De Eindopdracht’
a.
Met het semester ‘De Eindopdracht’ mag pas gestart worden als:
* Het tussenassessment van PP
(persoonlijke professionalisering)
is afgerond.
* tenminste 100 studiepunten van het hoofdfaseprogramma zijn behaald.
b.
Het eindassessment PP is altijd het laatste onderdeel van de studie. Dat kan dus pas worden afgenomen als alle
overige studieonderdelen zijn afgerond.
c.
De minor modules Coachen van ontwikkeling (15 ects) en HR analytics/finance voor HR (15 ects) zijn ontwikkeld
om de HRM-student een verdieping te geven in door de beroepspraktijk aangegeven actuele ontwikkelingen.
HRM-studenten volgen in principe geen andere minor dan de hierboven vermelde minormodules. Slechts in uitzonderijke gevallen kan, op basis van een beslissing van de examencommissie, hiervan worden afgeweken.

Onderwijseenheden Postpropedeutische fase - 60 stp (Jaar 2)
Studiegidsnu
mmer

Werkvorm (wit)
Toetsvorm (grijs)

Titel

Studi
e
punt
en
(ECT
S)

Onderwijs- en examenregeling Opleiding Human Resource Management

Wegi
ng
(%)

Minim
um
Waard
e
(cijfer)

Afname
Centraal
: door
OB
Decentr
aal:

Afname
(Deel)tentame
n
in

Afname
Herkansing
in

28

door
de
docent

Semester
1
Proces- en
Prestatiemanagement
PR1 Theorie Proc. &
Prest. Man
PR1 Theorie
Proc.&Prest.man WC
PR1 Theorie
Proc.&Prest.man TS

2100PR__17

Onderwijseenheid

30

2100PR1_17

Onderdelen

2117PR1_WC
2117PR1_TS

Werkcoll. / instructiecollege
Toetsvorm: Toets
schriftelijk

2100PR2_17

Onderdelen

PR2 Onderzoeksplan

2117PR2_WC

Werkcoll. / instructiecollege

PR2 Onderzoeksplan WC

2117PR2_PD

Toetsvorm: Product

PR2 Onderzoeksplan PD

2100PR3_17

Onderdelen

2

2117PR3_TR

Training

2117PR3_AS

Toetsvorm: Assessment

PR3 Gedragassessment
PR3 Gedragassessment
TR
PR3 Gedragassessment
AS

2100PR4_17

Onderdelen

9

2117PR4_WC

Werkcoll. / instructiecollege

2117PR4_PD

Toetsvorm: Product

2100PR5_17

Onderdelen

2117PR5_WC

Werkcoll. / instructiecollege

2117PR5_PE

Toetsvorm: Presentatie

2100PR6_17

Onderdelen

2117PR6_WC

Werkcoll. / instructiecollege

2117PR6_PO

Toetsvorm: Portfolio

PR4 Procesverbeterplan
PR4 Procesverbeterplan
WC
PR4 Procesverbeterplan
PD
PR5
Pres.Procesverbeterplan
PR5
Pres.Procesverbeterplan
WC
PR5
Pres.Procesverbeterplan
PE
PR6 Verantwoording en
Visie
PR6 Verantwoording en
Visie WC
PR6 Verantwoording en
Visie PO

30

8

5

100

5,5

Blok 1 - Week
Centraal 9

Blok 2 Week 9

100

5,5

Decentr
aal

Semester 1 Geheel

Op
afspraak

100

5,5

Decentr
aal

Semester 1 Geheel

Op
afspraak

100

5,5

Decentr
aal

Semester 1 Geheel

Op
afspraak

100

5,5

Decentr
aal

Semester 1 Geheel

Op
afspraak

100

5,5

Decentr
aal

Semester 1 Geheel

Op
afspraak

100

5,5

Decentr
aal

Semester 2 Geheel

Op
afspraak

8

2

4

Semester
2
2100AT__17

Onderwijseenheid

2100AT1_17

Onderdelen

2117AT1_OP
2117AT1_PA

Opdracht
Toetsvorm: Paper / verslag
/ scriptie

Arbeidstransitie
AT1 Arbeidsmarkt
analyse
AT1 Arbeidsmarkt
analyse OP
AT1 Arbeidsmarkt
analyse PA

2100AT2_17

Onderdelen

AT2 Visie

2117AT2_WC

Werkcoll. / instructiecollege

AT2 Visie WC

7

Onderwijs- en examenregeling Opleiding Human Resource Management

29

100

5,5

Decentr
aal

Semester 2 Geheel

Op
afspraak

100

5,5

Decentr
aal

Semester 2 Geheel

Op
afspraak

100

5,5

Decentr
aal

Semester 2 Geheel

Op
afspraak

2117AT5_PD
Toetsvorm: Product
AT5 Verantwoording PD
100
*Herkansingen op afspraak kunnen in hetzelfde of daaropvolgende blok plaatsvinden

5,5

Decentr
aal

Semester 2 Geheel

Op
afspraak

2117AT2_PD

Toetsvorm: Product

AT2 Visie PD

2100AT3_17

Onderdelen

7

2117AT3_WC

Werkcoll. / instructiecollege

2117AT3_PE

Toetsvorm: Presentatie

AT3 Evaluatie HR Beleid
AT3 Evaluatie HR Beleid
WC
AT3 Evaluatie HR Beleid
PE

2100AT4_17

Onderdelen

AT4 Advies

5

2117AT4_WC

Werkcoll. / instructiecollege

AT4 Advies WC

2117AT4_PE

Toetsvorm: Presentatie

AT4 Advies PE

2100AT5_17

Onderdelen

AT5 Verantwoording

2117AT5_WC

Werkcoll. / instructiecollege

AT5 Verantwoording WC

3

Onderwijseenheden Postpropedeutische fase - 60 stp (Jaar 3)
Studiegidsnum Werkvorm (wit)
mer
Toetsvorm (grijs)

Titel

Studi
e
punt
en
(ECTS
)

Wegi
ng
(%)

Minim
um
Waard
e
(cijfer)

100

5,5

Semester
1
3100AV__17

Onderwijseenheid

3100AV1_17
3117AV1_WC

Onderdelen
Werkcoll. /
instructiecollege

3117AV1_PD

Toetsvorm: Product

3100AV2_17

Adviseren
Verandermanagement HRM

Afname Afname
Afname
Centraal: (Deel)tentamen Herkansi
door OB in
ng in
Decentra
al: door
de
docent

30

AV1 Wenselijke Strateg. HRM
AV1 Wenselijke Strateg. HRM
WC
AV1 Wenselijke Strateg. HRM
PD

7

AV2 Advies Traject

8

3117AV2_WC

Onderdelen
Werkcoll. /
instructiecollege

3117AV21PD

Toetsvorm: Product

AV2 Opzet Advies Traject PD

50

5,5

3117AV22PD

Toetsvorm: Product

25

5,5

3117AV23PD

Toetsvorm: Product

AV2 Advies Gesprek PD
AV2 Verantw. Advies Traject
PD

25

3100AV3_17
3117AV3_WC

Onderdelen
Werkcoll. /
instructiecollege

3117AV3_PD

Toetsvorm: Product

3100AV4_17

Decentra Semester 1 al
Geheel

Op
afspraak

5,5

Decentra
al
Decentra
al
Decentra
al

Semester 1 Geheel
Semester 1 Geheel
Semester 1 Geheel

Op
afspraak
Op
afspraak
Op
afspraak

100

5,5

Decentra Semester 1 al
Geheel

Op
afspraak

40

5,5

Decentra Semester 1 al
Geheel

Op
afspraak

AV2 Advies Traject WC

AV3 Veranderplan Eigen Org.
AV3 Veranderplan Eigen Org.
WC
AV3 Veranderplan Eigen Org.
PD

7

AV4 Interventie Demonstratie

5

3117AV4_WC

Onderdelen
Werkcoll. /
instructiecollege

3117AV41PD

Toetsvorm: Product

AV4 Productmap PD

AV4 Interventie Demonstr. WC

Onderwijs- en examenregeling Opleiding Human Resource Management

30

3117AV42PD

Toetsvorm: Product

AV4 Interventie Uitvoering PD

3117AV43PD

Toetsvorm: Product

AV4 Evaluatie PD

3100AV5_17

Onderdelen
Werkcoll. /
instructiecollege

AV5 Uitvoeren Interventie

5,5

Decentra
al
Decentra
al

Semester 1 Geheel
Semester 1 Geheel

Op
afspraak
Op
afspraak

5,5

Decentra Semester 1 al
Geheel

Op
afspraak

Afname
Centraal
: door
OB
Decentr
aal: door
de
docent

Afname
(Deel)tentame
n
in

Afname
Herkansi
ng in

20

5,5

40

3117VH5_PD
Toetsvorm: Product
AV5 Uitvoeren Interventie PD
100
*Herkansingen op afspraak kunnen in hetzelfde of daaropvolgende blok plaatsvinden

3117VH5_WC

3

AV5 Uitvoeren Interventie WC

Onderwijseenheden Postpropedeutische fase - 60 stp (Jaar 4)
Studiegidsnu
mmer

Werkvorm (wit)
Toetsvorm (grijs)

Titel

Studi
e
punt
en
(ECTS
)

Wegi
ng
(%)

Minim
um
Waard
e
(cijfer)

100

5,5

Decentr
aal

Semester 1 Geheel

Op
afspraak

100

5,5

Decentr
aal

Semester 1 Geheel

Op
afspraak

100

5,5

Decentr
aal

Semester 1 Geheel

Op
afspraak

Semester 2

Semester
2

Semester
1
4100PCOP15

Onderwijseenheid

4100COP115

Onderdelen

4115PP1_PO

Toetsvorm: Portfolio

Persoonlijke
Professionalisering
PP Competentie
ontwikkelplan
PP Competentie
ontwikkelpl. PO

4100COPT15

Onderdelen

PP tussenassessment

4115PPT_AS

Toetsvorm: Assessment

PP tussenassessment AS

4100COPI15

Onderdelen

15

4115PPI_AS

Toetsvorm: Assessment

PP eindassessment
PP integraal
eindassessment AS

4100EO__17

Onderwijseenheid

Eindopdracht

30

4100EO1_17

EO1 Het Plan

5

4117EO1_TM

Onderdelen
Toetsvorm: Toets
mondeling

4100EO2_17

Onderdelen

EO2 De Uitwerking

4117EO2_PD

Toetsvorm: Product

EO2 De Uitwerking PD

4100EO3_17

EO3 De Verantwoordings
EO3 De Verantwoordings
PA

3

4117EO3_PA

Onderdelen
Toetsvorm: Paper / verslag
/ scriptie

4100EO4_17

Onderdelen

EO4 Het Gesprek

2

30
3
3
12

Semester
2

100

5,5

Decentr
aal

Semester 2 Geheel

Op
afspraak

100

5,5

Decentr
aal

Semester 2 Geheel

Op
afspraak

100

5,5

Decentr
aal

Semester 2 Geheel

Op
afspraak

4117EO4_PD
Toetsvorm: Product
EO4 Het Gesprek PD
100
*Herkansingen op afspraak kunnen in hetzelfde of daaropvolgende blok plaatsvinden

5,5

Decentr
aal

Semester 2 Geheel

Op
afspraak

EO1 Het Plan TM
20

Onderwijs- en examenregeling Opleiding Human Resource Management

31

Onderwijseenheden Minoren - 30 stp
Studiegidsnum Werkvorm (wit)
mer
Toetsvorm (grijs)

Titel

Studi
e
punt
en
(ECT
S)

Wegi
ng
(%)

Minim
um
Waard
e
(cijfer)

100

5,5

Minoren
15 EC
6000MMAV19

Minor

Adviseren

15

6100AV__19

Onderwijseenheid

Adviseren

15

3100AV1_17

3117AV1_PD

Toetsvorm: Product

AV1 Wenselijke Strateg. HRM
AV1 Wenselijke Strateg. HRM
WC
AV1 Wenselijke Strateg. HRM
PD

7

3117AV1_WC

Onderdelen
Werkcoll. /
instructiecollege

3100AV2_17

AV2 Advies Traject

8

3117AV2_WC

Onderdelen
Werkcoll. /
instructiecollege

3117AV21PD

Toetsvorm: Product

AV2 Opzet Advies Traject PD

50

5,5

3117AV22PD

Toetsvorm: Product

25

5,5

3117AV23PD

Toetsvorm: Product

AV2 Advies Gesprek PD
AV2 Verantw. Advies Traject
PD

25

5,5

6000MMCO19

Minor

Coachen van Ontwikkeling

15

6100ZIS_17

Zelfinventarisatie

3

6117ZIS_WC

Onderwijseenheid
Werkcoll. /
instructiecollege

6117ZIS_PD

Toetsvorm: Product

Zelfinventarisatie PD

6100VVC_17

6117VVC_PD

Toetsvorm: Product

Video van een Coachinggesprek
Video van een Coachinggespk
WC
Video van een Coachinggespk
PD

3

6117VVC_WC

Onderwijseenheid
Werkcoll. /
instructiecollege

6100GAS_17

Assessmentgesprek

3

6117GAS_WC

Onderwijseenheid
Werkcoll. /
instructiecollege

6117GAS_PD

Toetsvorm: Product

Gedragsassessment PD

6100ETB_17

Eindwerkstuk Coachingtraject

6117ETB_WC

Onderwijseenheid
Werkcoll. /
instructiecollege

6117ETB_PD

Toetsvorm: Product

Eindwerkstuk Coachingtraj. PD

Afname
Centraal
: door
OB
Decentr
aal:
door
de
docent

Afname
Afname
(Deel)tentame Herkansing
n
in
in

Decentr
aal

Semester 1 Geheel

Decentr
aal
Decentr
aal
Decentr
aal

Semester 1 Geheel
Semester 1 Geheel
Semester 1 Geheel

Op afspraak

AV2 Advies Traject WC
Op afspraak
Op afspraak
Op afspraak

Semester 1+2

Semester
1+2

Zelfinventarisatie WC
100

5,5

Decentr
aal

Blok 1 Geheel

Op afspraak

100

5,5

Decentr
aal

Blok 1 Geheel

Op afspraak

100

5,5

Decentr
aal

Blok 1 Geheel

Op afspraak

100

5,5

Decentr
aal

Blok 1 Geheel

Op afspraak

Gedragsassessment WC

6

Eindwerkstuk Coachingtraj. WC

Onderwijs- en examenregeling Opleiding Human Resource Management

32

6000MMHA19

Minor

6100PHA_17
6117PHA_WC

Onderwijseenheid
Werkcoll. /
instructiecollege

6117PHA_PD

Toetsvorm: Product

6100PMH_17
6117PMH_WC

Onderwijseenheid
Werkcoll. /
instructiecollege

6117PMH_PD

Toetsvorm: Product

6100THA_17

Onderwijseenheid
Werkcoll. /
instructiecollege
Toetsvorm: Toets
schriftelijk

6117THA_WC
6117THA_TS

HR Analytics / Finance voor HR
Praticum HR Analytics / Finance
voor HR

15

Semester 1+2

Semester
1+2

5

Praticum HR Analytics/Fin WC
Praticum HR Analytics/Fin PD
Productmap HR Analytics /
Finance voor HR
Productmap HR Analytics/Fin
WC
Productmap HR Analytics/Fin
PD
Tentamen HR Analytics /
Finance voor HR

100

5,5

Decentr
aal

Blok 2 Geheel

Op afspraak

100

5,5

Decentr
aal

Blok 2 Geheel

Op afspraak

100

5,5

Blok 2 - Week
Centraal 8

5

5

Tentamen HR Analytics/Fin WC
Tentamen HR Analytics/Fin TS

Blok 3 Week 10

Minoren
30 EC
n.v.t
*Herkansingen op afspraak kunnen in hetzelfde of daaropvolgende blok plaatsvinden

Onderwijseenheden Semester Minoren
Studiegidsnumme Werkvorm (wit)
r
Toetsvorm (grijs)

Titel

Stud Wegi Minim Afname
ie
ng
um
Centraa
punt (%) Waard l: door
en
e
OB
(ECT
(cijfer) Decentr
S)
aal:
door
de
docent

Afname
(Deel)tentam
en
in

Afname
Herkansin
g in

Semester 1

Semester 1

Semester
Minoren
6000MSLH19

Minor

Leidinggeven en HRM

30

1100LH__17

Onderwijseenheid

30

1100LH1_17
1117LH1_WC

Onderdelen
Werkcoll. /
instructiecollege

1117LH1_PD

Toetsvorm: Product

Leidinggeven en HRM
LH1 Opd. Werving &
Selectie
LH1 Opd. Werving &
Selectie WC
LH1 Opd. Werving &
Selectie PD

1100LH2_17

LH2 Onderzoeksopzet

6

1117LH2_WC

Onderdelen
Werkcoll. /
instructiecollege

1117LH2_PD

Toetsvorm: Product

LH2 Onderzoeksopzet PD

1100LH3_17

Onderdelen

LH3 Gedragassessment 1

6

100

5,5

Decentr Semester 1 aal
Geheel

Op
afspraak

100

5,5

Decentr Semester 1 aal
Geheel

Op
afspraak

LH2 Onderzoeksopzet WC

Onderwijs- en examenregeling Opleiding Human Resource Management

3

33

1117LH3_WC

Werkcoll. /
instructiecollege

1117LH3_AS

Toetsvorm: Assessment

1100LH4_17
1117LH4_WC

Onderdelen
Werkcoll. /
instructiecollege

1117LH4_PD

Toetsvorm: Product

1100LD5_17
1117LD5_WC

Onderdelen
Werkcoll. /
instructiecollege

1117LD5_AS

Toetsvorm: Assessment

1100LH6_17

Onderdelen
Werkcoll. /
instructiecollege
Toetsvorm: Toets
schriftelijk

LH3 Gedragassessment 1
WC
LH3 Gedragassessment 1
AS
LH4 Opdracht Re-integratie
LH4 Opdracht Re-integratie
WC
LH4 Opdracht Reintegratie PD

4

LH5 Gedragassessment 2
LH5 Gedragassessment 2
WC
LH5 Gedragassessment 2
AS
LH6 Theorie
Leidinggev.&HRM
LH6 Theorie
Leidinggev.&HRM WC
LH6 Theorie
Leidinggev.&HRM TS

3

Reflectieverslag

3

1117LH7_WC

Onderdelen
Werkcoll. /
instructiecollege

1117LH7_PD

Toetsvorm: Product

LH7 Reflectieverslag PD

6000MSPR19

Minor

2100PR__17

Onderwijseenheid

2100PR1_17

Onderdelen
Werkcoll. /
instructiecollege
Toetsvorm: Toets
schriftelijk

1117LH6_WC
1117LH6_TS
1100LH7_17

2117PR1_WC
2117PR1_TS
2100PR2_17

100

5,5

Decentr Semester 1 aal
Geheel

Op
afspraak

100

5,5

Decentr Semester 1 aal
Geheel

Op
afspraak

100

5,5

Decentr Semester 1 aal
Geheel

Op
afspraak

100

5,5

Centraa Blok 2 - Week
l
8

Blok 3 Week 9

100

5,5

Decentr Semester 1 aal
Geheel

Op
afspraak

Semester 1+2

Semester
1+2

5

LH7 Reflectieverslag WC

Proces- en
Prestatiemanagement
Proces- en
Prestatiemanagement
PR1 Theorie Proc. & Prest.
Man
PR1 Theorie
Proc.&Prest.man WC
PR1 Theorie
Proc.&Prest.man TS
PR2 Onderzoeksplan

2117PR2_WC

Onderdelen
Werkcoll. /
instructiecollege

2117PR2_PD

Toetsvorm: Product

PR2 Onderzoeksplan PD

2100PR3_17

Onderdelen

PR3 Gedragassessment

2117PR3_TR

Training

PR3 Gedragassessment TR

2117PR3_AS

Toetsvorm: Assessment

PR3 Gedragassessment AS

2100PR4_17
2117PR4_WC

Onderdelen
Werkcoll. /
instructiecollege

2117PR4_PD

Toetsvorm: Product

2100PR5_17

Onderdelen

2117PR5_WC

Werkcoll. /
instructiecollege

PR4 Procesverbeterplan
PR4 Procesverbeterplan
WC
PR4 Procesverbeterplan
PD
PR5
Pres.Procesverbeterplan
PR5
Pres.Procesverbeterplan
WC

30
30
5

100

5,5

Centraa Blok 1 - Week
l
9

Blok 2 Week 9

100

5,5

Decentr Semester 1 aal
Geheel

Op
afspraak

100

5,5

Decentr Semester 1 aal
Geheel

Op
afspraak

100

5,5

Decentr Semester 1 aal
Geheel

Op
afspraak

8

PR2 Onderzoeksplan WC

Onderwijs- en examenregeling Opleiding Human Resource Management

2

9

2

34

2117PR5_PE

Toetsvorm: Presentatie

2100PR6_17
2117PR6_WC

Onderdelen
Werkcoll. /
instructiecollege

2117PR6_PO

Toetsvorm: Portfolio

PR5
Pres.Procesverbeterplan
PE
PR6 Verantwoording en
Visie
PR6 Verantwoording en
Visie WC
PR6 Verantwoording en
Visie PO

6000MSAT19

Minor

Arbeidstransitie

30

2100AT__17

Onderwijseenheid

Arbeidstransitie

30

2100AT1_17

Onderdelen

7

2117AT1_OP

Opdracht
Toetsvorm: Paper /
verslag / scriptie

AT1 Arbeidsmarkt analyse
AT1 Arbeidsmarkt analyse
OP
AT1 Arbeidsmarkt analyse
PA
AT2 Visie

8

2117AT2_WC

Onderdelen
Werkcoll. /
instructiecollege

2117AT2_PD

Toetsvorm: Product

AT2 Visie PD

2100AT3_17
2117AT3_WC

Onderdelen
Werkcoll. /
instructiecollege

AT3 Evaluatie HR Beleid
AT3 Evaluatie HR Beleid
WC

2117AT3_PE

Toetsvorm: Presentatie

AT3 Evaluatie HR Beleid PE

2100AT4_17

AT4 Advies

2117AT4_WC

Onderdelen
Werkcoll. /
instructiecollege

2117AT4_PE

Toetsvorm: Presentatie

AT4 Advies PE

2100AT5_17

AT5 Verantwoording

2117AT5_WC

Onderdelen
Werkcoll. /
instructiecollege

2117AT5_PD

Toetsvorm: Product

AT5 Verantwoording PD

2117AT1_PA
2100AT2_17

6000MSAV19

Minor

3100AV__17

Onderwijseenheid

3100AV1_17
3117AV1_WC

Onderdelen
Werkcoll. /
instructiecollege

3117AV1_PD

Toetsvorm: Product

3100AV2_17
3117AV2_WC

Onderdelen
Werkcoll. /
instructiecollege

3117AV21PD

Toetsvorm: Product

4

100

5,5

Decentr Semester 1 aal
Geheel

Op
afspraak

100

5,5

Decentr Semester 1 aal
Geheel

Op
afspraak

Semester 2

Semester 2

100

5,5

Decentr Semester 2 aal
Geheel

Op
afspraak

100

5,5

Decentr Semester 2 aal
Geheel

Op
afspraak

100

5,5

Decentr Semester 2 aal
Geheel

Op
afspraak

100

5,5

Decentr Semester 2 aal
Geheel

Op
afspraak

100

5,5

Decentr Semester 2 aal
Geheel

Op
afspraak

AT2 Visie WC

7

5

AT4 Advies WC

3

AT5 Verantwoording WC

Adviseren
Verandermanagement
HRM
Adviseren
Verandermanagement
HRM
AV1 Wenselijke Strateg.
HRM
AV1 Wenselijke Strateg.
HRM WC
AV1 Wenselijke Strateg.
HRM PD
AV2 Advies Traject
AV2 Advies Traject WC
AV2 Opzet Advies Traject
PD

Onderwijs- en examenregeling Opleiding Human Resource Management

30

Semester 1

Semester 1

30
7

100

5,5

Decentr Semester 1 aal
Geheel

Op
afspraak

50

5,5

Decentr Semester 1 aal
Geheel

Op
afspraak

8

35

5,5

Decentr
aal
Decentr
aal

Semester 1 Geheel
Semester 1 Geheel

Op
afspraak
Op
afspraak

100

5,5

Decentr Semester 1 aal
Geheel

Op
afspraak

40

5,5

Toetsvorm: Product

AV4 Productmap PD
AV4 Interventie Uitvoering
PD

20

5,5

3117AV43PD

Toetsvorm: Product

AV4 Evaluatie PD

40

5,5

Decentr
aal
Decentr
aal
Decentr
aal

Semester 1 Geheel
Semester 1 Geheel
Semester 1 Geheel

Op
afspraak
Op
afspraak
Op
afspraak

3100AV5_17

Onderdelen
Werkcoll. /
instructiecollege

100

5,5

Decentr Semester 1 aal
Geheel

Op
afspraak

3117AV22PD

Toetsvorm: Product

3117AV23PD

Toetsvorm: Product

3100AV3_17
3117AV3_WC

Onderdelen
Werkcoll. /
instructiecollege

3117AV3_PD

Toetsvorm: Product

3100AV4_17
3117AV4_WC

Onderdelen
Werkcoll. /
instructiecollege

3117AV41PD

Toetsvorm: Product

3117AV42PD

AV2 Advies Gesprek PD
AV2 Verantw. Advies
Traject PD
AV3 Veranderplan Eigen
Org.
AV3 Veranderplan Eigen
Org. WC
AV3 Veranderplan Eigen
Org. PD
AV4 Interventie
Demonstratie
AV4 Interventie Demonstr.
WC

5,5

25
7

5

AV5 Uitvoeren Interventie
3
AV5 Uitvoeren Interventie
3117VH5_WC
WC
AV5 Uitvoeren Interventie
3117VH5_PD
Toetsvorm: Product
PD
*Herkansingen op afspraak kunnen in hetzelfde of daaropvolgende blok plaatsvinden

Onderwijs- en examenregeling Opleiding Human Resource Management

25

36

Hoofdstuk 10

Begrippen

In deze regeling wordt verstaan onder:
• afstudeerprogramma: de onderwijseenheden die tezamen de beoordeling van de eindkwalificaties van de
opleiding vormen;
• afstudeerrichting: een specialisatie binnen de opleiding als bedoeld in artikel 7.13 WHW, niet zijnde een minor;
• beoordeling: de vaststelling door een examinator in welke mate de student of extraneus heeft voldaan aan de
geformuleerde eisen voor een bepaalde onderwijseenheid of een bepaald onderdeel van de onderwijseenheid;
• College van beroep voor de examens (COBEX): college als bedoeld in artikel 7.60 WHW;
• college van bestuur: het instellingsbestuur als bedoeld in artikel 1.1 en 10.8 WHW;
• competentie: een integraal geheel van beroepskennis, -houding en -vaardigheden dat een persoon nodig heeft
om binnen relevante beroepscontexten adequaat te kunnen functioneren;
• decaan: leidinggevende van de faculteit waartoe de opleiding behoort;
• deelraad: raad als bedoeld in artikel 10.25 WHW;
• deeltentamen: een deeltentamen is een onderdeel van een tentamen waaraan een deelbeoordeling
(deelcijfer) is verbonden. Op basis van een deeltentamen kunnen geen studiepunten (EC) worden toegekend.
Aan het deelcijfer kunnen geen rechten worden ontleend. De studiepunten worden toegekend als de volledige
onderwijseenheid met een voldoende resultaat is afgesloten. De (eind)beoordeling van de onderwijseenheid is
een besluit met rechtsgevolg waartegen beroep mogelijk is;
• driejarig traject voor vwo’ers: versneld traject als bedoeld in artikel 7.9a WHW, met een studielast van 180
studiepunten;
• eindkwalificaties: omschrijving van het eindniveau van de opleiding;
• eindwerkstuk: het eindproduct van een onderwijseenheid waarbij de (of een deel van de) eindkwalificaties van
de opleiding worden beoordeeld;
• extraneus: studenten die geen onderwijs volgen en alleen tentamens afleggen;
• examen: afsluitend onderdeel van een opleiding als bedoeld in artikel 7.3 WHW of de propedeutische fase als
bedoeld in artikel 7.8 WHW;
• examencommissie: commissie als bedoeld in artikel 7.12 WHW;
• examinator: persoon als bedoeld in artikel 7.12c WHW, niet zijnde een student of extraneus;
• faculteit: organisatorische eenheid waarbinnen door de instelling onderwijs wordt aangeboden;
• fraude: gedraging als bedoeld in artikel 4.6 van deze regeling;
• gedragscode studentendecanen: gedragscode studentendecanen Hogeschool van Amsterdam, vastgesteld
door het college van bestuur op 8 mei 2008;
• geïntegreerde herkansing: één tentamen dat in de plaats van twee of meer deeltentamens de tweede
gelegenheid vormt;

Onderwijs- en examenregeling Opleiding Human Resource Management

37

• gemeenschappelijke propedeuse: een door het college van bestuur goedgekeurd eerste jaar waarbij meerdere
CROHO-opleidingen een gemeenschappelijk opleidingsprogramma aan de propedeusestudenten aanbieden;
• gewogen gemiddelde: berekening van het gemiddelde eindcijfer waarbij de omvang in studiepunten van de
onderwijseenheden wordt meegewogen;
• honoursprogramma: traject gericht op een hoger kennisniveau voor hoofdfasestudenten;
• hoofdfase: de fase van de opleiding volgend op de propedeuse (post-propedeutische fase);
• instelling: de Hogeschool van Amsterdam;
• leerroute: een door het college van bestuur goedgekeurd opleidingsprogramma dat vanaf de propedeuse afwijkt van de CROHO-geregistreerde bacheloropleiding waar de route onder valt. De bacheloropleiding en de
leerroute leiden op voor hetzelfde getuigschrift en daarmee voor dezelfde eindkwalificaties;
• onderwijseenheid: onderwijseenheid als bedoeld in artikel 7.3 WHW, die in samenhang met andere
onderwijseenheden het onderwijsprogramma van de opleiding vormt, en waaraan een examen is verbonden.
Iedere onderwijseenheid wordt afgesloten met deeltentamens of een tentamen;
• opleiding: bacheloropleiding als bedoeld in artikel 7.3a, lid 2a WHW;
• opleidingscommissie: commissie als bedoeld in artikel 10.3c WHW;
• opleidingsmanager: degene die met de dagelijkse leiding van de opleiding is belast;
• plagiaat: gedraging als bedoeld in artikel 4.4 van deze regeling;
• praktische oefeningen: oefeningen die uitsluitend onder begeleiding kunnen plaatsvinden tijdens ingeroosterde bijeenkomsten, en die gericht zijn op het verwerven van een praktische beroepsvaardigheid, en die binnen de betreffende onderwijseenheid worden getentamineerd.
• programma: het samenhangend geheel van onderwijseenheden verzorgd door de opleiding;
• propedeuse: fase van de opleiding, als bedoeld in artikel 7.8 WHW;
• SIS: studenteninformatiesysteem;
• student: degene die als student, als bedoeld in artikel 7.32 WHW, is ingeschreven bij de instelling;
• studentbegeleider: degene die namens de opleiding is aangewezen om de student te begeleiden in haar
studie-, keuze- en planningsprocessen, gericht op een effectieve studievoortgang;
• studentbegeleiding: het geheel aan maatregelen en activiteiten dat de opleiding biedt om de student zo
adequaat mogelijk en op maat te begeleiden;
• studentendecaan: degene die door de instelling is aangesteld om de (aankomende) student, de decaan, het
management van de opleiding en de examencommissie te informeren en adviseren over studentenzaken, en
om de student, op verzoek, te begeleiden bij problemen van persoonlijke aard;
• studentenstatuut: statuut als bedoeld in artikel 7.59 WHW;
• studiegids: de digitale informatiebron met alle informatie over de opleiding en de onderwijseenheden. Bij
tegenstrijdigheid tussen de studiegids en de Onderwijs- en examenregeling geldt de informatie in de
Onderwijs- en examenregeling;
• studiejaar: het tijdvak dat aanvangt op 1 september en eindigt op 31 augustus van het daaropvolgende
kalenderjaar of, indien men zich inschrijft per 1 februari, het tijdvak dat aanvangt op 1 februari en eindigt op 31
januari van het daaropvolgende kalenderjaar;

Onderwijs- en examenregeling Opleiding Human Resource Management

38

• studiepunt: eenheid voor berekening van de studielast als bedoeld in artikel 7.4 WHW, waarbij 60
studiepunten gelijk zijn aan 1.680 uren studie. Eén studiepunt staat voor 28 studiebelastingsuren. In Europees
verband worden studiepunten uitgedrukt in EC (European Credits). Alleen het met goed gevolg afsluiten van
een onderwijseenheid of het verlenen van een vrijstelling door de examencommissie, leidt tot het toekennen
van studiepunten voor de betreffende onderwijseenheid;
• tentamen: een onderzoek naar de kennis, het inzicht en/of de vaardigheden van de student, als bedoeld in
artikel 7.3 en 7.10 WHW, waaraan een beoordeling door een examinator is verbonden en dat de afsluiting
vormt van een onderwijseenheid; een tentamen kan zijn opgedeeld in twee of meer afzonderlijke
deeltentamens;
• toetsprogramma: overzicht van alle tentamens en deeltentamens van alle onderwijseenheden, waarin is
vastgelegd welke toetsvorm wordt gehanteerd bij de eerste en tweede gelegenheid, welk aantal studiepunten
aan elke onderwijseenheid wordt toegekend, en in welk blok of welke week de toets wordt afgenomen;
• traject gericht op hoger kennisniveau: speciaal traject als bedoeld in artikel 7.9b WHW, gericht op een hoger
kennisniveau, bijvoorbeeld academische route, excellente minor, intracurriculair honoursprogramma;
• versneld programma: een bachelorprogramma, niet zijnde een driejarig traject voor vwo’ers, waarvan het
reguliere aantal studiepunten binnen een kortere doorlooptijd wordt aangeboden en getoetst, bijvoorbeeld
240 studiepunten in drie jaar.
• werkdagen: voor de bepaling van werkdagen wordt het jaarrooster van de HvA aangehouden. Zaterdagen,
zondagen, feestdagen en verplichte vrije dagen zijn niet-werkdagen. Bij deeltijdopleidingen kunnen zaterdagen
wel zijn aangemerkt als werkdagen.
• WHW: Wet op het hoger onderwijs en wetenschappelijk onderzoek

Onderwijs- en examenregeling Opleiding Human Resource Management

39

